{
    "crp_id": null, 
    "cspan_id": null, 
    "current_party": "", 
    "date_of_birth": "1947-12-09", 
    "facebook_account": null, 
    "first_name": "Thomas", 
    "gender": "M", 
    "google_entity_id": null, 
    "govtrack_id": "300031", 
    "icpsr_id": "14617", 
    "in_office": false, 
    "last_name": "Daschle", 
    "last_updated": "2013-04-12 20:12:00 -0400", 
    "member_id": "D000064", 
    "middle_name": "A.", 
    "most_recent_vote": "", 
    "roles": [
        {
            "bills_cosponsored": 368, 
            "bills_sponsored": 65, 
            "chamber": "Senate", 
            "committees": [], 
            "congress": "108", 
            "contact_form": null, 
            "end_date": "2005-01-03", 
            "fax": null, 
            "fec_candidate_id": "", 
            "leadership_role": null, 
            "lis_id": "S185", 
            "missed_votes_pct": 1.04, 
            "ocd_id": "ocd-division/country:us/state:sd", 
            "office": null, 
            "party": "D", 
            "phone": null, 
            "senate_class": "3", 
            "seniority": "17", 
            "short_title": "Sen.", 
            "start_date": "2003-01-07", 
            "state": "SD", 
            "state_rank": "", 
            "subcommittees": [], 
            "title": "Senator, 3rd Class", 
            "votes_with_party_pct": 93.11
        }, 
        {
            "bills_cosponsored": 265, 
            "bills_sponsored": 106, 
            "chamber": "Senate", 
            "committees": [], 
            "congress": "107", 
            "contact_form": null, 
            "end_date": "2003-01-03", 
            "fax": null, 
            "fec_candidate_id": "", 
            "leadership_role": null, 
            "lis_id": "S185", 
            "missed_votes_pct": 2.69, 
            "ocd_id": "ocd-division/country:us/state:sd", 
            "office": null, 
            "party": "D", 
            "phone": null, 
            "senate_class": "3", 
            "seniority": "15", 
            "short_title": "Sen.", 
            "start_date": "2001-01-03", 
            "state": "SD", 
            "state_rank": "", 
            "subcommittees": [], 
            "title": "Senator, 3rd Class", 
            "votes_with_party_pct": 93.99
        }, 
        {
            "bills_cosponsored": 346, 
            "bills_sponsored": 50, 
            "chamber": "Senate", 
            "committees": [], 
            "congress": "106", 
            "contact_form": null, 
            "end_date": "2001-01-03", 
            "fax": null, 
            "fec_candidate_id": "", 
            "leadership_role": null, 
            "lis_id": "S185", 
            "missed_votes_pct": 1.93, 
            "ocd_id": "ocd-division/country:us/state:sd", 
            "office": null, 
            "party": "D", 
            "phone": null, 
            "senate_class": "3", 
            "seniority": "13", 
            "short_title": "Sen.", 
            "start_date": "1999-01-06", 
            "state": "SD", 
            "state_rank": "", 
            "subcommittees": [], 
            "title": "Senator, 3rd Class", 
            "votes_with_party_pct": 94.69
        }, 
        {
            "bills_cosponsored": 246, 
            "bills_sponsored": 61, 
            "chamber": "Senate", 
            "committees": [], 
            "congress": "105", 
            "contact_form": null, 
            "end_date": "1999-01-03", 
            "fax": null, 
            "fec_candidate_id": "", 
            "leadership_role": null, 
            "lis_id": "S185", 
            "missed_votes_pct": 1.63, 
            "ocd_id": "ocd-division/country:us/state:sd", 
            "office": null, 
            "party": "D", 
            "phone": null, 
            "senate_class": "3", 
            "seniority": "11", 
            "short_title": "Sen.", 
            "start_date": "1997-01-07", 
            "state": "SD", 
            "state_rank": "", 
            "subcommittees": [], 
            "title": "Senator, 3rd Class", 
            "votes_with_party_pct": 91.86
        }, 
        {
            "bills_cosponsored": 166, 
            "bills_sponsored": 73, 
            "chamber": "Senate", 
            "committees": [], 
            "congress": "104", 
            "contact_form": null, 
            "end_date": "1997-01-03", 
            "fax": null, 
            "fec_candidate_id": "", 
            "leadership_role": null, 
            "lis_id": "S185", 
            "missed_votes_pct": 0.22, 
            "ocd_id": "ocd-division/country:us/state:sd", 
            "office": null, 
            "party": "D", 
            "phone": null, 
            "senate_class": "3", 
            "seniority": "9", 
            "short_title": "Sen.", 
            "start_date": "1995-01-04", 
            "state": "SD", 
            "state_rank": "", 
            "subcommittees": [], 
            "title": "Senator, 3rd Class", 
            "votes_with_party_pct": 91.25
        }, 
        {
            "bills_cosponsored": 230, 
            "bills_sponsored": 45, 
            "chamber": "Senate", 
            "committees": [], 
            "congress": "103", 
            "contact_form": null, 
            "end_date": "1995-01-03", 
            "fax": null, 
            "fec_candidate_id": "", 
            "leadership_role": null, 
            "lis_id": "S185", 
            "missed_votes_pct": 0.55, 
            "ocd_id": "ocd-division/country:us/state:sd", 
            "office": null, 
            "party": "D", 
            "phone": null, 
            "senate_class": "3", 
            "seniority": "7", 
            "short_title": "Sen.", 
            "start_date": "1993-01-05", 
            "state": "SD", 
            "state_rank": "", 
            "subcommittees": [], 
            "title": "Senator, 3rd Class", 
            "votes_with_party_pct": 90.44
        }, 
        {
            "chamber": "Senate", 
            "committees": [], 
            "congress": "102", 
            "contact_form": null, 
            "end_date": "1993-01-03", 
            "fax": null, 
            "fec_candidate_id": "", 
            "leadership_role": null, 
            "lis_id": "S185", 
            "missed_votes_pct": 0.36, 
            "ocd_id": "ocd-division/country:us/state:sd", 
            "office": null, 
            "party": "D", 
            "phone": null, 
            "senate_class": "3", 
            "seniority": "5", 
            "short_title": "Sen.", 
            "start_date": "1991-01-03", 
            "state": "SD", 
            "state_rank": "", 
            "subcommittees": [], 
            "title": "Senator, 3rd Class", 
            "votes_with_party_pct": 87.04
        }, 
        {
            "chamber": "Senate", 
            "committees": [], 
            "congress": "101", 
            "contact_form": null, 
            "end_date": "1991-01-03", 
            "fax": null, 
            "fec_candidate_id": "", 
            "leadership_role": null, 
            "lis_id": "S185", 
            "ocd_id": "ocd-division/country:us/state:sd", 
            "office": null, 
            "party": "D", 
            "phone": null, 
            "senate_class": "3", 
            "seniority": "3", 
            "short_title": "Sen.", 
            "start_date": "1989-01-03", 
            "state": "SD", 
            "state_rank": "", 
            "subcommittees": [], 
            "title": "Senator, 3rd Class"
        }, 
        {
            "chamber": "Senate", 
            "committees": [], 
            "congress": "100", 
            "contact_form": null, 
            "end_date": "1989-01-03", 
            "fax": null, 
            "fec_candidate_id": "", 
            "leadership_role": null, 
            "lis_id": "S185", 
            "ocd_id": "ocd-division/country:us/state:sd", 
            "office": null, 
            "party": "D", 
            "phone": null, 
            "senate_class": "3", 
            "seniority": "1", 
            "short_title": "Sen.", 
            "start_date": "1987-01-06", 
            "state": "SD", 
            "state_rank": "", 
            "subcommittees": [], 
            "title": "Senator, 3rd Class"
        }, 
        {
            "at_large": true, 
            "chamber": "House", 
            "committees": [], 
            "congress": "99", 
            "contact_form": null, 
            "district": "At-Large", 
            "end_date": "1987-01-03", 
            "fax": null, 
            "fec_candidate_id": "", 
            "leadership_role": null, 
            "ocd_id": "ocd-division/country:us/state:sd/cd:1", 
            "office": null, 
            "party": "D", 
            "phone": null, 
            "seniority": "8", 
            "short_title": "Rep.", 
            "start_date": "1985-01-03", 
            "state": "SD", 
            "subcommittees": [], 
            "title": "Representative"
        }, 
        {
            "at_large": true, 
            "chamber": "House", 
            "committees": [], 
            "congress": "98", 
            "contact_form": null, 
            "district": "At-Large", 
            "end_date": "1985-01-03", 
            "fax": null, 
            "fec_candidate_id": "", 
            "leadership_role": null, 
            "ocd_id": "ocd-division/country:us/state:sd/cd:1", 
            "office": null, 
            "party": "D", 
            "phone": null, 
            "seniority": "6", 
            "short_title": "Rep.", 
            "start_date": "1983-01-03", 
            "state": "SD", 
            "subcommittees": [], 
            "title": "Representative"
        }
    ], 
    "rss_url": null, 
    "suffix": null, 
    "times_tag": "Daschle, Tom (Per)", 
    "times_topics_url": "http://topics.nytimes.com/top/reference/timestopics/people/d/tom_daschle/index.html", 
    "twitter_account": null, 
    "url": null, 
    "votesmart_id": null, 
    "youtube_account": null
}