{
    "crp_id": "N00030771", 
    "cspan_id": "62470", 
    "current_party": "R", 
    "date_of_birth": "1958-11-22", 
    "facebook_account": "repgosar", 
    "first_name": "Paul", 
    "gender": "M", 
    "google_entity_id": "/m/0czdqz0", 
    "govtrack_id": "412397", 
    "icpsr_id": "21103", 
    "in_office": true, 
    "last_name": "Gosar", 
    "last_updated": "2019-07-02 18:00:22 -0400", 
    "member_id": "G000565", 
    "middle_name": null, 
    "most_recent_vote": "2019-06-27", 
    "roles": [
        {
            "at_large": false, 
            "bills_cosponsored": 159, 
            "bills_sponsored": 17, 
            "chamber": "House", 
            "committees": [
                {
                    "api_uri": "https://api.propublica.org/congress/v1/116/house/committees/HSII.json", 
                    "begin_date": "2019-01-24", 
                    "code": "HSII", 
                    "end_date": "2021-01-03", 
                    "name": "Committee on Natural Resources", 
                    "rank_in_party": 7, 
                    "side": "minority", 
                    "title": "Member"
                }, 
                {
                    "api_uri": "https://api.propublica.org/congress/v1/116/house/committees/HSGO.json", 
                    "begin_date": "2019-01-23", 
                    "code": "HSGO", 
                    "end_date": "2021-01-03", 
                    "name": "Committee on Oversight and Reform", 
                    "rank_in_party": 3, 
                    "side": "minority", 
                    "title": "Member"
                }
            ], 
            "congress": "116", 
            "contact_form": null, 
            "district": "4", 
            "end_date": "2021-01-03", 
            "fax": null, 
            "fec_candidate_id": "H0AZ01259", 
            "leadership_role": null, 
            "missed_votes_pct": 3.49, 
            "ocd_id": "ocd-division/country:us/state:az/cd:4", 
            "office": "2057 Rayburn House Office Building", 
            "party": "R", 
            "phone": "202-225-2315", 
            "seniority": "10", 
            "short_title": "Rep.", 
            "start_date": "2019-01-03", 
            "state": "AZ", 
            "subcommittees": [
                {
                    "api_uri": "https://api.propublica.org/congress/v1/116/house/committees/HSII/subcommittees/HSII15.json", 
                    "begin_date": "2019-01-30", 
                    "code": "HSII15", 
                    "end_date": "2021-01-03", 
                    "name": "Oversight and Investigations", 
                    "parent_committee_id": "HSII", 
                    "rank_in_party": 2, 
                    "side": "minority", 
                    "title": "Member"
                }, 
                {
                    "api_uri": "https://api.propublica.org/congress/v1/116/house/committees/HSII/subcommittees/HSII06.json", 
                    "begin_date": "2019-01-30", 
                    "code": "HSII06", 
                    "end_date": "2021-01-03", 
                    "name": "Energy and Mineral Resources", 
                    "parent_committee_id": "HSII", 
                    "rank_in_party": 1, 
                    "side": "minority", 
                    "title": "Ranking Member"
                }, 
                {
                    "api_uri": "https://api.propublica.org/congress/v1/116/house/committees/HSGO/subcommittees/HSGO06.json", 
                    "begin_date": "2019-01-29", 
                    "code": "HSGO06", 
                    "end_date": "2021-01-03", 
                    "name": "National Security", 
                    "parent_committee_id": "HSGO", 
                    "rank_in_party": 3, 
                    "side": "minority", 
                    "title": "Member"
                }, 
                {
                    "api_uri": "https://api.propublica.org/congress/v1/116/house/committees/HSGO/subcommittees/HSGO28.json", 
                    "begin_date": "2019-01-29", 
                    "code": "HSGO28", 
                    "end_date": "2021-01-03", 
                    "name": "Environment", 
                    "parent_committee_id": "HSGO", 
                    "rank_in_party": 2, 
                    "side": "minority", 
                    "title": "Member"
                }
            ], 
            "title": "Representative", 
            "votes_with_party_pct": 77.05
        }, 
        {
            "at_large": false, 
            "bills_cosponsored": 357, 
            "bills_sponsored": 23, 
            "chamber": "House", 
            "committees": [
                {
                    "api_uri": "https://api.propublica.org/congress/v1/115/house/committees/HSGO.json", 
                    "begin_date": "", 
                    "code": "HSGO", 
                    "end_date": "2019-01-03", 
                    "name": "Committee on Oversight and Reform", 
                    "rank_in_party": 7, 
                    "side": "majority", 
                    "title": "Member"
                }, 
                {
                    "api_uri": "https://api.propublica.org/congress/v1/115/house/committees/HSII.json", 
                    "begin_date": "", 
                    "code": "HSII", 
                    "end_date": "2019-01-03", 
                    "name": "Committee on Natural Resources", 
                    "rank_in_party": 9, 
                    "side": "majority", 
                    "title": "Member"
                }
            ], 
            "congress": "115", 
            "contact_form": null, 
            "district": "4", 
            "end_date": "2019-01-03", 
            "fax": "202-226-9739", 
            "fec_candidate_id": "H0AZ01259", 
            "leadership_role": null, 
            "missed_votes_pct": 4.46, 
            "ocd_id": "ocd-division/country:us/state:az/cd:4", 
            "office": "2057 Rayburn House Office Building", 
            "party": "R", 
            "phone": "202-225-2315", 
            "seniority": "8", 
            "short_title": "Rep.", 
            "start_date": "2017-01-03", 
            "state": "AZ", 
            "subcommittees": [
                {
                    "api_uri": "https://api.propublica.org/congress/v1/115/house/committees/HSGO/subcommittees/HSGO06.json", 
                    "begin_date": "", 
                    "code": "HSGO06", 
                    "end_date": "2019-01-03", 
                    "name": "National Security", 
                    "parent_committee_id": "HSGO", 
                    "rank_in_party": 5, 
                    "side": "majority", 
                    "title": "Member"
                }, 
                {
                    "api_uri": "https://api.propublica.org/congress/v1/115/house/committees/HSGO/subcommittees/HSGO28.json", 
                    "begin_date": "", 
                    "code": "HSGO28", 
                    "end_date": "2019-01-03", 
                    "name": "Environment", 
                    "parent_committee_id": "HSGO", 
                    "rank_in_party": 2, 
                    "side": "majority", 
                    "title": "Member"
                }, 
                {
                    "api_uri": "https://api.propublica.org/congress/v1/115/house/committees/HSII/subcommittees/HSII06.json", 
                    "begin_date": "", 
                    "code": "HSII06", 
                    "end_date": "2019-01-03", 
                    "name": "Energy and Mineral Resources", 
                    "parent_committee_id": "HSII", 
                    "rank_in_party": 1, 
                    "side": "majority", 
                    "title": "Chair"
                }, 
                {
                    "api_uri": "https://api.propublica.org/congress/v1/115/house/committees/HSII/subcommittees/HSII13.json", 
                    "begin_date": "", 
                    "code": "HSII13", 
                    "end_date": "2019-01-03", 
                    "name": "Water, Oceans, and Wildlife", 
                    "parent_committee_id": "HSII", 
                    "rank_in_party": 4, 
                    "side": "majority", 
                    "title": "Member"
                }
            ], 
            "title": "Representative", 
            "votes_with_party_pct": 89.16
        }, 
        {
            "at_large": false, 
            "bills_cosponsored": 332, 
            "bills_sponsored": 40, 
            "chamber": "House", 
            "committees": [
                {
                    "api_uri": "https://api.propublica.org/congress/v1/114/house/committees/HSGO.json", 
                    "begin_date": "", 
                    "code": "HSGO", 
                    "end_date": "2017-01-03", 
                    "name": "Committee on Oversight and Reform", 
                    "rank_in_party": 8
                }, 
                {
                    "api_uri": "https://api.propublica.org/congress/v1/114/house/committees/HSII.json", 
                    "begin_date": "", 
                    "code": "HSII", 
                    "end_date": "2017-01-03", 
                    "name": "Committee on Natural Resources", 
                    "rank_in_party": 12
                }
            ], 
            "congress": "114", 
            "contact_form": null, 
            "district": "4", 
            "end_date": "2017-01-03", 
            "fax": null, 
            "fec_candidate_id": "H0AZ01259", 
            "leadership_role": null, 
            "missed_votes_pct": 4.08, 
            "ocd_id": "ocd-division/country:us/state:az/cd:4", 
            "office": null, 
            "party": "R", 
            "phone": null, 
            "seniority": "6", 
            "short_title": "Rep.", 
            "start_date": "2015-01-06", 
            "state": "AZ", 
            "subcommittees": [], 
            "title": "Representative", 
            "votes_with_party_pct": 91.09
        }, 
        {
            "at_large": false, 
            "bills_cosponsored": 255, 
            "bills_sponsored": 26, 
            "chamber": "House", 
            "committees": [
                {
                    "api_uri": "https://api.propublica.org/congress/v1/113/house/committees/HSII.json", 
                    "begin_date": "2013-01-04", 
                    "code": "HSII", 
                    "end_date": "2015-01-03", 
                    "name": "Committee on Natural Resources", 
                    "rank_in_party": 15
                }, 
                {
                    "api_uri": "https://api.propublica.org/congress/v1/113/house/committees/HSGO.json", 
                    "begin_date": "2013-01-04", 
                    "code": "HSGO", 
                    "end_date": "2015-01-03", 
                    "name": "Committee on Oversight and Reform", 
                    "rank_in_party": 11
                }
            ], 
            "congress": "113", 
            "contact_form": null, 
            "district": "4", 
            "end_date": "2015-01-03", 
            "fax": null, 
            "fec_candidate_id": "", 
            "leadership_role": null, 
            "missed_votes_pct": 13.51, 
            "ocd_id": "ocd-division/country:us/state:az/cd:4", 
            "office": null, 
            "party": "R", 
            "phone": null, 
            "seniority": "4", 
            "short_title": "Rep.", 
            "start_date": "2013-01-03", 
            "state": "AZ", 
            "subcommittees": [], 
            "title": "Representative", 
            "votes_with_party_pct": 91.98
        }, 
        {
            "at_large": false, 
            "bills_cosponsored": 255, 
            "bills_sponsored": 26, 
            "chamber": "House", 
            "committees": [
                {
                    "api_uri": "https://api.propublica.org/congress/v1/112/house/committees/HSII.json", 
                    "begin_date": "2011-01-18", 
                    "code": "HSII", 
                    "end_date": "2013-01-03", 
                    "name": "Committee on Natural Resources", 
                    "rank_in_party": 18
                }, 
                {
                    "api_uri": "https://api.propublica.org/congress/v1/112/house/committees/HSGO.json", 
                    "begin_date": "2011-01-18", 
                    "code": "HSGO", 
                    "end_date": "2013-01-03", 
                    "name": "Committee on Oversight and Reform", 
                    "rank_in_party": 14
                }
            ], 
            "congress": "112", 
            "contact_form": null, 
            "district": "1", 
            "end_date": "2013-01-03", 
            "fax": null, 
            "fec_candidate_id": "", 
            "leadership_role": null, 
            "missed_votes_pct": 4.73, 
            "ocd_id": "ocd-division/country:us/state:az/cd:1", 
            "office": null, 
            "party": "R", 
            "phone": null, 
            "seniority": "2", 
            "short_title": "Rep.", 
            "start_date": "2011-01-04", 
            "state": "AZ", 
            "subcommittees": [], 
            "title": "Representative", 
            "votes_with_party_pct": 93.91
        }
    ], 
    "rss_url": null, 
    "suffix": null, 
    "times_tag": "", 
    "times_topics_url": "", 
    "twitter_account": "RepGosar", 
    "url": "https://gosar.house.gov", 
    "votesmart_id": "123491", 
    "youtube_account": "repgosar"
}