{
    "crp_id": "N00008046", 
    "cspan_id": "54579", 
    "current_party": "D", 
    "date_of_birth": "1946-07-16", 
    "facebook_account": "RepBarbaraLee", 
    "first_name": "Barbara", 
    "gender": "F", 
    "google_entity_id": "/m/024sjy", 
    "govtrack_id": "400237", 
    "icpsr_id": "29778", 
    "in_office": true, 
    "last_name": "Lee", 
    "last_updated": "2019-07-02 18:00:24 -0400", 
    "member_id": "L000551", 
    "middle_name": null, 
    "most_recent_vote": "2019-06-27", 
    "roles": [
        {
            "at_large": false, 
            "bills_cosponsored": 398, 
            "bills_sponsored": 32, 
            "chamber": "House", 
            "committees": [
                {
                    "api_uri": "https://api.propublica.org/congress/v1/116/house/committees/HSBU.json", 
                    "begin_date": "2019-01-24", 
                    "code": "HSBU", 
                    "end_date": "2021-01-03", 
                    "name": "Committee on the Budget", 
                    "rank_in_party": 17, 
                    "side": "majority", 
                    "title": "Member"
                }, 
                {
                    "api_uri": "https://api.propublica.org/congress/v1/116/house/committees/HSAP.json", 
                    "begin_date": "2019-01-15", 
                    "code": "HSAP", 
                    "end_date": "2021-01-03", 
                    "name": "Committee on Appropriations", 
                    "rank_in_party": 9, 
                    "side": "majority", 
                    "title": "Member"
                }
            ], 
            "congress": "116", 
            "contact_form": null, 
            "district": "13", 
            "end_date": "2021-01-03", 
            "fax": null, 
            "fec_candidate_id": "H8CA09060", 
            "leadership_role": null, 
            "missed_votes_pct": 1.63, 
            "ocd_id": "ocd-division/country:us/state:ca/cd:13", 
            "office": "2470 Rayburn House Office Building", 
            "party": "D", 
            "phone": "202-225-2661", 
            "seniority": "24", 
            "short_title": "Rep.", 
            "start_date": "2019-01-03", 
            "state": "CA", 
            "subcommittees": [
                {
                    "api_uri": "https://api.propublica.org/congress/v1/116/house/committees/HSAP/subcommittees/HSAP01.json", 
                    "begin_date": "", 
                    "code": "HSAP01", 
                    "end_date": "2021-01-03", 
                    "name": "Agriculture, Rural Development, Food and Drug Administration, and Related Agencies", 
                    "parent_committee_id": "HSAP", 
                    "rank_in_party": 5, 
                    "side": "majority", 
                    "title": "Member"
                }, 
                {
                    "api_uri": "https://api.propublica.org/congress/v1/116/house/committees/HSAP/subcommittees/HSAP04.json", 
                    "begin_date": "", 
                    "code": "HSAP04", 
                    "end_date": "2021-01-03", 
                    "name": "State, Foreign Operations, and Related Programs", 
                    "parent_committee_id": "HSAP", 
                    "rank_in_party": 2, 
                    "side": "majority", 
                    "title": "Member"
                }, 
                {
                    "api_uri": "https://api.propublica.org/congress/v1/116/house/committees/HSAP/subcommittees/HSAP07.json", 
                    "begin_date": "", 
                    "code": "HSAP07", 
                    "end_date": "2021-01-03", 
                    "name": "Labor, Health and Human Services, Education, and Related Agencies", 
                    "parent_committee_id": "HSAP", 
                    "rank_in_party": 3, 
                    "side": "majority", 
                    "title": "Member"
                }
            ], 
            "title": "Representative", 
            "votes_with_party_pct": 98.34
        }, 
        {
            "at_large": false, 
            "bills_cosponsored": 751, 
            "bills_sponsored": 52, 
            "chamber": "House", 
            "committees": [
                {
                    "api_uri": "https://api.propublica.org/congress/v1/115/house/committees/HSAP.json", 
                    "begin_date": "", 
                    "code": "HSAP", 
                    "end_date": "2019-01-03", 
                    "name": "Committee on Appropriations", 
                    "rank_in_party": 9, 
                    "side": "minority", 
                    "title": "Member"
                }, 
                {
                    "api_uri": "https://api.propublica.org/congress/v1/115/house/committees/HSBU.json", 
                    "begin_date": "", 
                    "code": "HSBU", 
                    "end_date": "2019-01-03", 
                    "name": "Committee on the Budget", 
                    "rank_in_party": 2, 
                    "side": "minority", 
                    "title": "Member"
                }
            ], 
            "congress": "115", 
            "contact_form": null, 
            "district": "13", 
            "end_date": "2019-01-03", 
            "fax": "202-225-9817", 
            "fec_candidate_id": "H8CA09060", 
            "leadership_role": null, 
            "missed_votes_pct": 1.9, 
            "ocd_id": "ocd-division/country:us/state:ca/cd:13", 
            "office": "2267 Rayburn House Office Building", 
            "party": "D", 
            "phone": "202-225-2661", 
            "seniority": "22", 
            "short_title": "Rep.", 
            "start_date": "2017-01-03", 
            "state": "CA", 
            "subcommittees": [
                {
                    "api_uri": "https://api.propublica.org/congress/v1/115/house/committees/HSAP/subcommittees/HSAP04.json", 
                    "begin_date": "", 
                    "code": "HSAP04", 
                    "end_date": "2019-01-03", 
                    "name": "State, Foreign Operations, and Related Programs", 
                    "parent_committee_id": "HSAP", 
                    "rank_in_party": 2, 
                    "side": "minority", 
                    "title": "Member"
                }, 
                {
                    "api_uri": "https://api.propublica.org/congress/v1/115/house/committees/HSAP/subcommittees/HSAP07.json", 
                    "begin_date": "", 
                    "code": "HSAP07", 
                    "end_date": "2019-01-03", 
                    "name": "Labor, Health and Human Services, Education, and Related Agencies", 
                    "parent_committee_id": "HSAP", 
                    "rank_in_party": 3, 
                    "side": "minority", 
                    "title": "Member"
                }, 
                {
                    "api_uri": "https://api.propublica.org/congress/v1/115/house/committees/HSAP/subcommittees/HSAP18.json", 
                    "begin_date": "", 
                    "code": "HSAP18", 
                    "end_date": "2019-01-03", 
                    "name": "Military Construction, Veterans Affairs, and Related Agencies", 
                    "parent_committee_id": "HSAP", 
                    "rank_in_party": 3, 
                    "side": "minority", 
                    "title": "Member"
                }
            ], 
            "title": "Representative", 
            "votes_with_party_pct": 93.41
        }, 
        {
            "at_large": false, 
            "bills_cosponsored": 585, 
            "bills_sponsored": 44, 
            "chamber": "House", 
            "committees": [
                {
                    "api_uri": "https://api.propublica.org/congress/v1/114/house/committees/HSAP.json", 
                    "begin_date": "", 
                    "code": "HSAP", 
                    "end_date": "2017-01-03", 
                    "name": "Committee on Appropriations", 
                    "rank_in_party": 11
                }, 
                {
                    "api_uri": "https://api.propublica.org/congress/v1/114/house/committees/HSBU.json", 
                    "begin_date": "", 
                    "code": "HSBU", 
                    "end_date": "2017-01-03", 
                    "name": "Committee on the Budget", 
                    "rank_in_party": 8
                }
            ], 
            "congress": "114", 
            "contact_form": null, 
            "district": "13", 
            "end_date": "2017-01-03", 
            "fax": null, 
            "fec_candidate_id": "H8CA09060", 
            "leadership_role": null, 
            "missed_votes_pct": 10.11, 
            "ocd_id": "ocd-division/country:us/state:ca/cd:13", 
            "office": null, 
            "party": "D", 
            "phone": null, 
            "seniority": "20", 
            "short_title": "Rep.", 
            "start_date": "2015-01-06", 
            "state": "CA", 
            "subcommittees": [], 
            "title": "Representative", 
            "votes_with_party_pct": 94.78
        }, 
        {
            "at_large": false, 
            "bills_cosponsored": 730, 
            "bills_sponsored": 51, 
            "chamber": "House", 
            "committees": [
                {
                    "api_uri": "https://api.propublica.org/congress/v1/113/house/committees/HSAP.json", 
                    "begin_date": "2013-01-03", 
                    "code": "HSAP", 
                    "end_date": "2015-01-03", 
                    "name": "Committee on Appropriations", 
                    "rank_in_party": 13
                }, 
                {
                    "api_uri": "https://api.propublica.org/congress/v1/113/house/committees/HSBU.json", 
                    "begin_date": "2013-01-03", 
                    "code": "HSBU", 
                    "end_date": "2015-01-03", 
                    "name": "Committee on the Budget", 
                    "rank_in_party": 8
                }
            ], 
            "congress": "113", 
            "contact_form": null, 
            "district": "13", 
            "end_date": "2015-01-02", 
            "fax": null, 
            "fec_candidate_id": "", 
            "leadership_role": null, 
            "missed_votes_pct": 4.7, 
            "ocd_id": "ocd-division/country:us/state:ca/cd:13", 
            "office": null, 
            "party": "D", 
            "phone": null, 
            "seniority": "18", 
            "short_title": "Rep.", 
            "start_date": "2013-01-03", 
            "state": "CA", 
            "subcommittees": [], 
            "title": "Representative", 
            "votes_with_party_pct": 90.56
        }, 
        {
            "at_large": false, 
            "bills_cosponsored": 625, 
            "bills_sponsored": 52, 
            "chamber": "House", 
            "committees": [
                {
                    "api_uri": "https://api.propublica.org/congress/v1/112/house/committees/HSAP.json", 
                    "begin_date": "2011-01-11", 
                    "code": "HSAP", 
                    "end_date": "2013-01-03", 
                    "name": "Committee on Appropriations", 
                    "rank_in_party": 18
                }
            ], 
            "congress": "112", 
            "contact_form": null, 
            "district": "9", 
            "end_date": "2013-01-03", 
            "fax": null, 
            "fec_candidate_id": "", 
            "leadership_role": null, 
            "missed_votes_pct": 4.73, 
            "ocd_id": "ocd-division/country:us/state:ca/cd:9", 
            "office": null, 
            "party": "D", 
            "phone": null, 
            "seniority": "16", 
            "short_title": "Rep.", 
            "start_date": "2011-01-04", 
            "state": "CA", 
            "subcommittees": [], 
            "title": "Representative", 
            "votes_with_party_pct": 89.71
        }, 
        {
            "at_large": false, 
            "bills_cosponsored": 733, 
            "bills_sponsored": 61, 
            "chamber": "House", 
            "committees": [
                {
                    "api_uri": "https://api.propublica.org/congress/v1/111/house/committees/HSFA.json", 
                    "begin_date": "2009-01-21", 
                    "code": "HSFA", 
                    "end_date": "2011-01-03", 
                    "name": "Committee on Foreign Affairs", 
                    "rank_in_party": 19
                }, 
                {
                    "api_uri": "https://api.propublica.org/congress/v1/111/house/committees/HSAP.json", 
                    "begin_date": "2009-01-07", 
                    "code": "HSAP", 
                    "end_date": "2011-01-03", 
                    "name": "Committee on Appropriations", 
                    "rank_in_party": 25
                }
            ], 
            "congress": "111", 
            "contact_form": null, 
            "district": "9", 
            "end_date": "2011-01-03", 
            "fax": null, 
            "fec_candidate_id": "", 
            "leadership_role": null, 
            "missed_votes_pct": 2.48, 
            "ocd_id": "ocd-division/country:us/state:ca/cd:9", 
            "office": null, 
            "party": "D", 
            "phone": null, 
            "seniority": "14", 
            "short_title": "Rep.", 
            "start_date": "2009-01-06", 
            "state": "CA", 
            "subcommittees": [], 
            "title": "Representative", 
            "votes_with_party_pct": 95.41
        }, 
        {
            "at_large": false, 
            "bills_cosponsored": 797, 
            "bills_sponsored": 69, 
            "chamber": "House", 
            "committees": [
                {
                    "api_uri": "https://api.propublica.org/congress/v1/110/house/committees/HSAP.json", 
                    "begin_date": "2007-01-04", 
                    "code": "HSAP", 
                    "end_date": "2009-01-03", 
                    "name": "Committee on Appropriations", 
                    "rank_in_party": 27
                }
            ], 
            "congress": "110", 
            "contact_form": null, 
            "district": "9", 
            "end_date": "2009-01-03", 
            "fax": null, 
            "fec_candidate_id": "", 
            "leadership_role": null, 
            "missed_votes_pct": 3.15, 
            "ocd_id": "ocd-division/country:us/state:ca/cd:9", 
            "office": null, 
            "party": "D", 
            "phone": null, 
            "seniority": "12", 
            "short_title": "Rep.", 
            "start_date": "2007-01-04", 
            "state": "CA", 
            "subcommittees": [], 
            "title": "Representative", 
            "votes_with_party_pct": 94.93
        }, 
        {
            "at_large": false, 
            "bills_cosponsored": 667, 
            "bills_sponsored": 46, 
            "chamber": "House", 
            "committees": [], 
            "congress": "109", 
            "contact_form": null, 
            "district": "9", 
            "end_date": "2007-01-03", 
            "fax": null, 
            "fec_candidate_id": "", 
            "leadership_role": null, 
            "missed_votes_pct": 3.79, 
            "ocd_id": "ocd-division/country:us/state:ca/cd:9", 
            "office": null, 
            "party": "D", 
            "phone": null, 
            "seniority": "10", 
            "short_title": "Rep.", 
            "start_date": "2005-01-04", 
            "state": "CA", 
            "subcommittees": [], 
            "title": "Representative", 
            "votes_with_party_pct": 89.21
        }, 
        {
            "at_large": false, 
            "bills_cosponsored": 824, 
            "bills_sponsored": 26, 
            "chamber": "House", 
            "committees": [], 
            "congress": "108", 
            "contact_form": null, 
            "district": "9", 
            "end_date": "2005-01-03", 
            "fax": null, 
            "fec_candidate_id": "", 
            "leadership_role": null, 
            "missed_votes_pct": 2.46, 
            "ocd_id": "ocd-division/country:us/state:ca/cd:9", 
            "office": null, 
            "party": "D", 
            "phone": null, 
            "seniority": "8", 
            "short_title": "Rep.", 
            "start_date": "2003-01-07", 
            "state": "CA", 
            "subcommittees": [], 
            "title": "Representative", 
            "votes_with_party_pct": 90.85
        }, 
        {
            "at_large": false, 
            "bills_cosponsored": 720, 
            "bills_sponsored": 20, 
            "chamber": "House", 
            "committees": [], 
            "congress": "107", 
            "contact_form": null, 
            "district": "9", 
            "end_date": "2003-01-03", 
            "fax": null, 
            "fec_candidate_id": "", 
            "leadership_role": null, 
            "missed_votes_pct": 0.9, 
            "ocd_id": "ocd-division/country:us/state:ca/cd:9", 
            "office": null, 
            "party": "D", 
            "phone": null, 
            "seniority": "6", 
            "short_title": "Rep.", 
            "start_date": "2001-01-03", 
            "state": "CA", 
            "subcommittees": [], 
            "title": "Representative", 
            "votes_with_party_pct": 86.83
        }, 
        {
            "at_large": false, 
            "bills_cosponsored": 598, 
            "bills_sponsored": 8, 
            "chamber": "House", 
            "committees": [], 
            "congress": "106", 
            "contact_form": null, 
            "district": "9", 
            "end_date": "2001-01-03", 
            "fax": null, 
            "fec_candidate_id": "", 
            "leadership_role": null, 
            "missed_votes_pct": 1.81, 
            "ocd_id": "ocd-division/country:us/state:ca/cd:9", 
            "office": null, 
            "party": "D", 
            "phone": null, 
            "seniority": "4", 
            "short_title": "Rep.", 
            "start_date": "1999-01-06", 
            "state": "CA", 
            "subcommittees": [], 
            "title": "Representative", 
            "votes_with_party_pct": 87.08
        }, 
        {
            "at_large": false, 
            "bills_cosponsored": 128, 
            "bills_sponsored": 1, 
            "chamber": "House", 
            "committees": [], 
            "congress": "105", 
            "contact_form": null, 
            "district": "9", 
            "end_date": "1999-01-03", 
            "fax": null, 
            "fec_candidate_id": "", 
            "leadership_role": null, 
            "missed_votes_pct": 0.67, 
            "ocd_id": "ocd-division/country:us/state:ca/cd:9", 
            "office": null, 
            "party": "D", 
            "phone": null, 
            "seniority": "2", 
            "short_title": "Rep.", 
            "start_date": "1997-01-07", 
            "state": "CA", 
            "subcommittees": [], 
            "title": "Representative", 
            "votes_with_party_pct": 85.62
        }
    ], 
    "rss_url": null, 
    "suffix": null, 
    "times_tag": "", 
    "times_topics_url": "", 
    "twitter_account": "RepBarbaraLee", 
    "url": "https://lee.house.gov", 
    "votesmart_id": "8315", 
    "youtube_account": "RepLee"
}