{
    "crp_id": "N00031253", 
    "cspan_id": "61949", 
    "current_party": "R", 
    "date_of_birth": "1962-04-25", 
    "facebook_account": "keithrothfus", 
    "first_name": "Keith", 
    "gender": "M", 
    "google_entity_id": "/m/0ds0r5g", 
    "govtrack_id": "412570", 
    "icpsr_id": "21357", 
    "in_office": false, 
    "last_name": "Rothfus", 
    "last_updated": "2019-04-08 10:25:08 -0400", 
    "member_id": "R000598", 
    "middle_name": null, 
    "most_recent_vote": "2018-12-21", 
    "roles": [
        {
            "at_large": false, 
            "bills_cosponsored": 208, 
            "bills_sponsored": 18, 
            "chamber": "House", 
            "committees": [
                {
                    "api_uri": "https://api.propublica.org/congress/v1/115/house/committees/HSBA.json", 
                    "begin_date": "", 
                    "code": "HSBA", 
                    "end_date": "2019-01-03", 
                    "name": "Committee on Financial Services", 
                    "rank_in_party": 17, 
                    "side": "majority", 
                    "title": "Member"
                }
            ], 
            "congress": "115", 
            "contact_form": null, 
            "district": "12", 
            "end_date": "2019-01-03", 
            "fax": "202-225-5709", 
            "fec_candidate_id": "H0PA04220", 
            "leadership_role": "", 
            "missed_votes_pct": 0.33, 
            "ocd_id": "ocd-division/country:us/state:pa/cd:12", 
            "office": "1205 Longworth House Office Building", 
            "party": "R", 
            "phone": "202-225-2065", 
            "seniority": "6", 
            "short_title": "Rep.", 
            "start_date": "2017-01-03", 
            "state": "PA", 
            "subcommittees": [
                {
                    "api_uri": "https://api.propublica.org/congress/v1/115/house/committees/HSBA/subcommittees/HSBA01.json", 
                    "begin_date": "", 
                    "code": "HSBA01", 
                    "end_date": "2019-01-03", 
                    "name": "National Security, International Development, and Monetary Policy", 
                    "parent_committee_id": "HSBA", 
                    "rank_in_party": 3, 
                    "side": "majority", 
                    "title": "Member"
                }, 
                {
                    "api_uri": "https://api.propublica.org/congress/v1/115/house/committees/HSBA/subcommittees/HSBA04.json", 
                    "begin_date": "", 
                    "code": "HSBA04", 
                    "end_date": "2019-01-03", 
                    "name": "Housing, Community Development, and Insurance", 
                    "parent_committee_id": "HSBA", 
                    "rank_in_party": 9, 
                    "side": "majority", 
                    "title": "Member"
                }, 
                {
                    "api_uri": "https://api.propublica.org/congress/v1/115/house/committees/HSBA/subcommittees/HSBA15.json", 
                    "begin_date": "", 
                    "code": "HSBA15", 
                    "end_date": "2019-01-03", 
                    "name": "Consumer Protection and Financial Institutions", 
                    "parent_committee_id": "HSBA", 
                    "rank_in_party": 2, 
                    "side": "majority", 
                    "title": "Member"
                }
            ], 
            "title": "Representative", 
            "votes_with_party_pct": 96.76
        }, 
        {
            "at_large": false, 
            "bills_cosponsored": 205, 
            "bills_sponsored": 10, 
            "chamber": "House", 
            "committees": [
                {
                    "api_uri": "https://api.propublica.org/congress/v1/114/house/committees/HSBA.json", 
                    "begin_date": "", 
                    "code": "HSBA", 
                    "end_date": "2017-01-03", 
                    "name": "Committee on Financial Services", 
                    "rank_in_party": 25
                }
            ], 
            "congress": "114", 
            "contact_form": null, 
            "district": "12", 
            "end_date": "2017-01-03", 
            "fax": null, 
            "fec_candidate_id": "H0PA04220", 
            "leadership_role": null, 
            "missed_votes_pct": 0.98, 
            "ocd_id": "ocd-division/country:us/state:pa/cd:12", 
            "office": null, 
            "party": "R", 
            "phone": null, 
            "seniority": "4", 
            "short_title": "Rep.", 
            "start_date": "2015-01-06", 
            "state": "PA", 
            "subcommittees": [], 
            "title": "Representative", 
            "votes_with_party_pct": 96.26
        }, 
        {
            "at_large": false, 
            "bills_cosponsored": 207, 
            "bills_sponsored": 6, 
            "chamber": "House", 
            "committees": [
                {
                    "api_uri": "https://api.propublica.org/congress/v1/113/house/committees/HSBA.json", 
                    "begin_date": "2013-04-16", 
                    "code": "HSBA", 
                    "end_date": "2015-01-03", 
                    "name": "Committee on Financial Services", 
                    "rank_in_party": 34
                }, 
                {
                    "api_uri": "https://api.propublica.org/congress/v1/113/house/committees/HSHM.json", 
                    "begin_date": "2013-01-04", 
                    "code": "HSHM", 
                    "end_date": "2013-04-16", 
                    "name": "Committee on Homeland Security", 
                    "rank_in_party": 14
                }, 
                {
                    "api_uri": "https://api.propublica.org/congress/v1/113/house/committees/HSJU.json", 
                    "begin_date": "2013-01-04", 
                    "code": "HSJU", 
                    "end_date": "2013-04-16", 
                    "name": "Committee on the Judiciary", 
                    "rank_in_party": 23
                }
            ], 
            "congress": "113", 
            "contact_form": null, 
            "district": "12", 
            "end_date": "2015-01-03", 
            "fax": null, 
            "fec_candidate_id": "", 
            "leadership_role": null, 
            "missed_votes_pct": 0.08, 
            "ocd_id": "ocd-division/country:us/state:pa/cd:12", 
            "office": null, 
            "party": "R", 
            "phone": null, 
            "seniority": "2", 
            "short_title": "Rep.", 
            "start_date": "2013-01-03", 
            "state": "PA", 
            "subcommittees": [], 
            "title": "Representative", 
            "votes_with_party_pct": 95.38
        }
    ], 
    "rss_url": null, 
    "suffix": null, 
    "times_tag": "", 
    "times_topics_url": "", 
    "twitter_account": "KeithRothfus", 
    "url": null, 
    "votesmart_id": "119466", 
    "youtube_account": "reprothfus"
}