{
    "crp_id": "N00006561", 
    "cspan_id": "10075", 
    "current_party": "D", 
    "date_of_birth": "1948-05-18", 
    "facebook_account": "senatortomudall", 
    "first_name": "Tom", 
    "gender": "M", 
    "google_entity_id": "/m/033t35", 
    "govtrack_id": "400413", 
    "icpsr_id": "29924", 
    "in_office": true, 
    "last_name": "Udall", 
    "last_updated": "2019-06-28 18:02:50 -0400", 
    "member_id": "U000039", 
    "middle_name": null, 
    "most_recent_vote": "2019-06-28", 
    "roles": [
        {
            "bills_cosponsored": 155, 
            "bills_sponsored": 34, 
            "chamber": "Senate", 
            "committees": [
                {
                    "api_uri": "https://api.propublica.org/congress/v1/116/senate/committees/SSFR.json", 
                    "begin_date": "2019-01-09", 
                    "code": "SSFR", 
                    "end_date": "2021-01-03", 
                    "name": "Committee on Foreign Relations", 
                    "rank_in_party": 5, 
                    "side": "minority", 
                    "title": "Member"
                }, 
                {
                    "api_uri": "https://api.propublica.org/congress/v1/116/senate/committees/SSRA.json", 
                    "begin_date": "2019-01-09", 
                    "code": "SSRA", 
                    "end_date": "2021-01-03", 
                    "name": "Committee on Rules and Administration", 
                    "rank_in_party": 5, 
                    "side": "minority", 
                    "title": "Member"
                }, 
                {
                    "api_uri": "https://api.propublica.org/congress/v1/116/senate/committees/SLIA.json", 
                    "begin_date": "2019-01-09", 
                    "code": "SLIA", 
                    "end_date": "2021-01-03", 
                    "name": "Committee on Indian Affairs", 
                    "rank_in_party": 1, 
                    "side": "minority", 
                    "title": "Ranking Member"
                }, 
                {
                    "api_uri": "https://api.propublica.org/congress/v1/116/senate/committees/SSCM.json", 
                    "begin_date": "2019-01-09", 
                    "code": "SSCM", 
                    "end_date": "2021-01-03", 
                    "name": "Committee on Commerce, Science, and Transportation", 
                    "rank_in_party": 6, 
                    "side": "minority", 
                    "title": "Member"
                }, 
                {
                    "api_uri": "https://api.propublica.org/congress/v1/116/senate/committees/SSAP.json", 
                    "begin_date": "2019-01-09", 
                    "code": "SSAP", 
                    "end_date": "2021-01-03", 
                    "name": "Committee on Appropriations", 
                    "rank_in_party": 7, 
                    "side": "minority", 
                    "title": "Member"
                }, 
                {
                    "api_uri": "https://api.propublica.org/congress/v1/116/senate/committees/JCSE.json", 
                    "begin_date": "", 
                    "code": "JCSE", 
                    "end_date": "2021-01-03", 
                    "name": "Commission on Security and Cooperation in Europe", 
                    "rank_in_party": 3, 
                    "side": "minority", 
                    "title": "Member"
                }, 
                {
                    "api_uri": "https://api.propublica.org/congress/v1/116/senate/committees/JSPR.json", 
                    "begin_date": "", 
                    "code": "JSPR", 
                    "end_date": "2021-01-03", 
                    "name": "Joint Committee on Printing", 
                    "rank_in_party": 2, 
                    "side": "minority", 
                    "title": "Member"
                }
            ], 
            "congress": "116", 
            "contact_form": "https://www.tomudall.senate.gov/?p=contact", 
            "end_date": "2021-01-03", 
            "fax": "202-228-3261", 
            "fec_candidate_id": "H8NM03097", 
            "leadership_role": "", 
            "lis_id": "S326", 
            "missed_votes_pct": 2.12, 
            "ocd_id": "ocd-division/country:us/state:nm", 
            "office": "531 Hart Senate Office Building", 
            "party": "D", 
            "phone": "202-224-6621", 
            "senate_class": "2", 
            "seniority": "12", 
            "short_title": "Sen.", 
            "start_date": "2019-01-03", 
            "state": "NM", 
            "state_rank": "senior", 
            "subcommittees": [
                {
                    "api_uri": "https://api.propublica.org/congress/v1/116/senate/committees/SSCM/subcommittees/SSCM26.json", 
                    "begin_date": "2019-01-24", 
                    "code": "SSCM26", 
                    "end_date": "2021-01-03", 
                    "name": "Communications, Technology, Innovation, and the Internet", 
                    "parent_committee_id": "SSCM", 
                    "rank_in_party": 5, 
                    "side": "minority", 
                    "title": "Member"
                }, 
                {
                    "api_uri": "https://api.propublica.org/congress/v1/116/senate/committees/SSCM/subcommittees/SSCM28.json", 
                    "begin_date": "2019-01-24", 
                    "code": "SSCM28", 
                    "end_date": "2021-01-03", 
                    "name": "Aviation and Space Subcommittee", 
                    "parent_committee_id": "SSCM", 
                    "rank_in_party": 3, 
                    "side": "minority", 
                    "title": "Member"
                }, 
                {
                    "api_uri": "https://api.propublica.org/congress/v1/116/senate/committees/SSCM/subcommittees/SSCM29.json", 
                    "begin_date": "2019-01-24", 
                    "code": "SSCM29", 
                    "end_date": "2021-01-03", 
                    "name": "Manufacturing, Trade, and Consumer Protection Subcommittee", 
                    "parent_committee_id": "SSCM", 
                    "rank_in_party": 5, 
                    "side": "minority", 
                    "title": "Member"
                }, 
                {
                    "api_uri": "https://api.propublica.org/congress/v1/116/senate/committees/SSCM/subcommittees/SSCM32.json", 
                    "begin_date": "2019-01-24", 
                    "code": "SSCM32", 
                    "end_date": "2021-01-03", 
                    "name": "Transportation and Safety Subcommittee", 
                    "parent_committee_id": "SSCM", 
                    "rank_in_party": 5, 
                    "side": "minority", 
                    "title": "Member"
                }, 
                {
                    "api_uri": "https://api.propublica.org/congress/v1/116/senate/committees/SSCM/subcommittees/SSCM31.json", 
                    "begin_date": "", 
                    "code": "SSCM31", 
                    "end_date": "2021-01-03", 
                    "name": "Security Subcommittee", 
                    "parent_committee_id": "SSCM", 
                    "rank_in_party": 5, 
                    "side": "minority", 
                    "title": "Member"
                }, 
                {
                    "api_uri": "https://api.propublica.org/congress/v1/116/senate/committees/SSAP/subcommittees/SSAP01.json", 
                    "begin_date": "", 
                    "code": "SSAP01", 
                    "end_date": "2021-01-03", 
                    "name": "Agriculture, Rural Development, Food and Drug Administration, and Related Agencies", 
                    "parent_committee_id": "SSAP", 
                    "rank_in_party": 4, 
                    "side": "minority", 
                    "title": "Member"
                }, 
                {
                    "api_uri": "https://api.propublica.org/congress/v1/116/senate/committees/SSAP/subcommittees/SSAP02.json", 
                    "begin_date": "", 
                    "code": "SSAP02", 
                    "end_date": "2021-01-03", 
                    "name": "Department of Defense Subcommittee", 
                    "parent_committee_id": "SSAP", 
                    "rank_in_party": 7, 
                    "side": "minority", 
                    "title": "Member"
                }, 
                {
                    "api_uri": "https://api.propublica.org/congress/v1/116/senate/committees/SSAP/subcommittees/SSAP17.json", 
                    "begin_date": "", 
                    "code": "SSAP17", 
                    "end_date": "2021-01-03", 
                    "name": "Department of the Interior, Environment, and Related Agencies", 
                    "parent_committee_id": "SSAP", 
                    "rank_in_party": 1, 
                    "side": "minority", 
                    "title": "Ranking Member"
                }, 
                {
                    "api_uri": "https://api.propublica.org/congress/v1/116/senate/committees/SSFR/subcommittees/SSFR02.json", 
                    "begin_date": "", 
                    "code": "SSFR02", 
                    "end_date": "2021-01-03", 
                    "name": "East Asia, the Pacific, and International Cybersecurity Policy", 
                    "parent_committee_id": "SSFR", 
                    "rank_in_party": 4, 
                    "side": "minority", 
                    "title": "Member"
                }, 
                {
                    "api_uri": "https://api.propublica.org/congress/v1/116/senate/committees/SSFR/subcommittees/SSFR06.json", 
                    "begin_date": "", 
                    "code": "SSFR06", 
                    "end_date": "2021-01-03", 
                    "name": "Western Hemisphere, Transnational Crime, Civilian Security, Democracy, Human Rights, and Global Women's Issues", 
                    "parent_committee_id": "SSFR", 
                    "rank_in_party": 2, 
                    "side": "minority", 
                    "title": "Member"
                }, 
                {
                    "api_uri": "https://api.propublica.org/congress/v1/116/senate/committees/SSAP/subcommittees/SSAP19.json", 
                    "begin_date": "", 
                    "code": "SSAP19", 
                    "end_date": "2021-01-03", 
                    "name": "Military Construction and Veterans Affairs, and Related Agencies", 
                    "parent_committee_id": "SSAP", 
                    "rank_in_party": 5, 
                    "side": "minority", 
                    "title": "Member"
                }, 
                {
                    "api_uri": "https://api.propublica.org/congress/v1/116/senate/committees/SSFR/subcommittees/SSFR14.json", 
                    "begin_date": "", 
                    "code": "SSFR14", 
                    "end_date": "2021-01-03", 
                    "name": "State Department and USAID Management, International Operations, and Bilateral International Development", 
                    "parent_committee_id": "SSFR", 
                    "rank_in_party": 4, 
                    "side": "minority", 
                    "title": "Member"
                }, 
                {
                    "api_uri": "https://api.propublica.org/congress/v1/116/senate/committees/SSFR/subcommittees/SSFR15.json", 
                    "begin_date": "", 
                    "code": "SSFR15", 
                    "end_date": "2021-01-03", 
                    "name": "Multilateral International Development, Multilateral Institutions, and International Economic, Energy, and Environmental Policy", 
                    "parent_committee_id": "SSFR", 
                    "rank_in_party": 2, 
                    "side": "minority", 
                    "title": "Member"
                }, 
                {
                    "api_uri": "https://api.propublica.org/congress/v1/116/senate/committees/SSAP/subcommittees/SSAP22.json", 
                    "begin_date": "", 
                    "code": "SSAP22", 
                    "end_date": "2021-01-03", 
                    "name": "Energy and Water Development", 
                    "parent_committee_id": "SSAP", 
                    "rank_in_party": 5, 
                    "side": "minority", 
                    "title": "Member"
                }
            ], 
            "title": "Senator, 2nd Class", 
            "votes_with_party_pct": 89.19
        }, 
        {
            "bills_cosponsored": 322, 
            "bills_sponsored": 46, 
            "chamber": "Senate", 
            "committees": [
                {
                    "api_uri": "https://api.propublica.org/congress/v1/115/senate/committees/SSRA.json", 
                    "begin_date": "2017-01-03", 
                    "code": "SSRA", 
                    "end_date": "2019-01-03", 
                    "name": "Committee on Rules and Administration", 
                    "rank_in_party": 5, 
                    "side": "minority", 
                    "title": "Member"
                }, 
                {
                    "api_uri": "https://api.propublica.org/congress/v1/115/senate/committees/JCSE.json", 
                    "begin_date": "2017-01-03", 
                    "code": "JCSE", 
                    "end_date": "2019-01-03", 
                    "name": "Commission on Security and Cooperation in Europe", 
                    "rank_in_party": 3, 
                    "side": "minority", 
                    "title": "Member"
                }, 
                {
                    "api_uri": "https://api.propublica.org/congress/v1/115/senate/committees/JSPR.json", 
                    "begin_date": "2017-01-03", 
                    "code": "JSPR", 
                    "end_date": "2019-01-03", 
                    "name": "Joint Committee on Printing", 
                    "rank_in_party": null, 
                    "side": "minority", 
                    "title": "Member"
                }, 
                {
                    "api_uri": "https://api.propublica.org/congress/v1/115/senate/committees/SLIA.json", 
                    "begin_date": "2017-01-03", 
                    "code": "SLIA", 
                    "end_date": "2019-01-03", 
                    "name": "Committee on Indian Affairs", 
                    "rank_in_party": 1, 
                    "side": "minority", 
                    "title": "Ranking Member"
                }, 
                {
                    "api_uri": "https://api.propublica.org/congress/v1/115/senate/committees/SSAP.json", 
                    "begin_date": "2017-01-03", 
                    "code": "SSAP", 
                    "end_date": "2019-01-03", 
                    "name": "Committee on Appropriations", 
                    "rank_in_party": 7, 
                    "side": "minority", 
                    "title": "Member"
                }, 
                {
                    "api_uri": "https://api.propublica.org/congress/v1/115/senate/committees/SSCM.json", 
                    "begin_date": "2017-01-03", 
                    "code": "SSCM", 
                    "end_date": "2019-01-03", 
                    "name": "Committee on Commerce, Science, and Transportation", 
                    "rank_in_party": 8, 
                    "side": "minority", 
                    "title": "Member"
                }, 
                {
                    "api_uri": "https://api.propublica.org/congress/v1/115/senate/committees/SSFR.json", 
                    "begin_date": "2017-01-03", 
                    "code": "SSFR", 
                    "end_date": "2019-01-03", 
                    "name": "Committee on Foreign Relations", 
                    "rank_in_party": 5, 
                    "side": "minority", 
                    "title": "Member"
                }
            ], 
            "congress": "115", 
            "contact_form": "https://www.tomudall.senate.gov/?p=contact", 
            "end_date": "2019-01-03", 
            "fax": "202-228-3261", 
            "fec_candidate_id": "S8NM00184", 
            "leadership_role": null, 
            "lis_id": "S326", 
            "missed_votes_pct": 1.0, 
            "ocd_id": "ocd-division/country:us/state:nm", 
            "office": "531 Hart Senate Office Building", 
            "party": "D", 
            "phone": "202-224-6621", 
            "senate_class": "2", 
            "seniority": "10", 
            "short_title": "Sen.", 
            "start_date": "2017-01-03", 
            "state": "NM", 
            "state_rank": "senior", 
            "subcommittees": [
                {
                    "api_uri": "https://api.propublica.org/congress/v1/115/senate/committees/SSAP/subcommittees/SSAP01.json", 
                    "begin_date": "", 
                    "code": "SSAP01", 
                    "end_date": "2019-01-03", 
                    "name": "Agriculture, Rural Development, Food and Drug Administration, and Related Agencies", 
                    "parent_committee_id": "SSAP", 
                    "rank_in_party": 4, 
                    "side": "minority", 
                    "title": "Member"
                }, 
                {
                    "api_uri": "https://api.propublica.org/congress/v1/115/senate/committees/SSAP/subcommittees/SSAP02.json", 
                    "begin_date": "", 
                    "code": "SSAP02", 
                    "end_date": "2019-01-03", 
                    "name": "Department of Defense Subcommittee", 
                    "parent_committee_id": "SSAP", 
                    "rank_in_party": 7, 
                    "side": "minority", 
                    "title": "Member"
                }, 
                {
                    "api_uri": "https://api.propublica.org/congress/v1/115/senate/committees/SSCM/subcommittees/SSCM01.json", 
                    "begin_date": "", 
                    "code": "SSCM01", 
                    "end_date": "2019-01-03", 
                    "name": "Aviation and Space", 
                    "parent_committee_id": "SSCM", 
                    "rank_in_party": 7, 
                    "side": "minority", 
                    "title": "Member"
                }, 
                {
                    "api_uri": "https://api.propublica.org/congress/v1/115/senate/committees/SSAP/subcommittees/SSAP17.json", 
                    "begin_date": "", 
                    "code": "SSAP17", 
                    "end_date": "2019-01-03", 
                    "name": "Department of the Interior, Environment, and Related Agencies", 
                    "parent_committee_id": "SSAP", 
                    "rank_in_party": 1, 
                    "side": "minority", 
                    "title": "Ranking Member"
                }, 
                {
                    "api_uri": "https://api.propublica.org/congress/v1/115/senate/committees/SSCM/subcommittees/SSCM26.json", 
                    "begin_date": "", 
                    "code": "SSCM26", 
                    "end_date": "2019-01-03", 
                    "name": "Communications, Technology, Innovation, and the Internet", 
                    "parent_committee_id": "SSCM", 
                    "rank_in_party": 7, 
                    "side": "minority", 
                    "title": "Member"
                }, 
                {
                    "api_uri": "https://api.propublica.org/congress/v1/115/senate/committees/SSFR/subcommittees/SSFR09.json", 
                    "begin_date": "", 
                    "code": "SSFR09", 
                    "end_date": "2019-01-03", 
                    "name": "Africa and Global Health Policy", 
                    "parent_committee_id": "SSFR", 
                    "rank_in_party": 3, 
                    "side": "minority", 
                    "title": "Member"
                }, 
                {
                    "api_uri": "https://api.propublica.org/congress/v1/115/senate/committees/SSCM/subcommittees/SSCM20.json", 
                    "begin_date": "", 
                    "code": "SSCM20", 
                    "end_date": "2019-01-03", 
                    "name": "Manufacturing, Trade, and Consumer Protection", 
                    "parent_committee_id": "SSCM", 
                    "rank_in_party": 5, 
                    "side": "minority", 
                    "title": "Member"
                }, 
                {
                    "api_uri": "https://api.propublica.org/congress/v1/115/senate/committees/SSAP/subcommittees/SSAP22.json", 
                    "begin_date": "", 
                    "code": "SSAP22", 
                    "end_date": "2019-01-03", 
                    "name": "Energy and Water Development", 
                    "parent_committee_id": "SSAP", 
                    "rank_in_party": 5, 
                    "side": "minority", 
                    "title": "Member"
                }, 
                {
                    "api_uri": "https://api.propublica.org/congress/v1/115/senate/committees/SSFR/subcommittees/SSFR15.json", 
                    "begin_date": "", 
                    "code": "SSFR15", 
                    "end_date": "2019-01-03", 
                    "name": "Multilateral International Development, Multilateral Institutions, and International Economic, Energy, and Environmental Policy", 
                    "parent_committee_id": "SSFR", 
                    "rank_in_party": 2, 
                    "side": "minority", 
                    "title": "Member"
                }, 
                {
                    "api_uri": "https://api.propublica.org/congress/v1/115/senate/committees/SSCM/subcommittees/SSCM24.json", 
                    "begin_date": "", 
                    "code": "SSCM24", 
                    "end_date": "2019-01-03", 
                    "name": "Space, Science, and Competitiveness", 
                    "parent_committee_id": "SSCM", 
                    "rank_in_party": 3, 
                    "side": "minority", 
                    "title": "Member"
                }, 
                {
                    "api_uri": "https://api.propublica.org/congress/v1/115/senate/committees/SSFR/subcommittees/SSFR14.json", 
                    "begin_date": "", 
                    "code": "SSFR14", 
                    "end_date": "2019-01-03", 
                    "name": "State Department and USAID Management, International Operations, and Bilateral International Development", 
                    "parent_committee_id": "SSFR", 
                    "rank_in_party": 4, 
                    "side": "minority", 
                    "title": "Member"
                }, 
                {
                    "api_uri": "https://api.propublica.org/congress/v1/115/senate/committees/SSAP/subcommittees/SSAP19.json", 
                    "begin_date": "", 
                    "code": "SSAP19", 
                    "end_date": "2019-01-03", 
                    "name": "Military Construction and Veterans Affairs, and Related Agencies", 
                    "parent_committee_id": "SSAP", 
                    "rank_in_party": 5, 
                    "side": "minority", 
                    "title": "Member"
                }, 
                {
                    "api_uri": "https://api.propublica.org/congress/v1/115/senate/committees/SSFR/subcommittees/SSFR06.json", 
                    "begin_date": "", 
                    "code": "SSFR06", 
                    "end_date": "2019-01-03", 
                    "name": "Western Hemisphere, Transnational Crime, Civilian Security, Democracy, Human Rights, and Global Women's Issues", 
                    "parent_committee_id": "SSFR", 
                    "rank_in_party": 2, 
                    "side": "minority", 
                    "title": "Member"
                }, 
                {
                    "api_uri": "https://api.propublica.org/congress/v1/115/senate/committees/SSCM/subcommittees/SSCM25.json", 
                    "begin_date": "", 
                    "code": "SSCM25", 
                    "end_date": "2019-01-03", 
                    "name": "Transportation and Safety", 
                    "parent_committee_id": "SSCM", 
                    "rank_in_party": 5, 
                    "side": "minority", 
                    "title": "Member"
                }, 
                {
                    "api_uri": "https://api.propublica.org/congress/v1/115/senate/committees/SSCM/subcommittees/SSCM01.json", 
                    "begin_date": "", 
                    "code": "SSCM01", 
                    "end_date": "2019-01-03", 
                    "name": "Aviation and Space", 
                    "parent_committee_id": "SSCM", 
                    "rank_in_party": 6, 
                    "side": "minority", 
                    "title": "Member"
                }, 
                {
                    "api_uri": "https://api.propublica.org/congress/v1/115/senate/committees/SSCM/subcommittees/SSCM26.json", 
                    "begin_date": "", 
                    "code": "SSCM26", 
                    "end_date": "2019-01-03", 
                    "name": "Communications, Technology, Innovation, and the Internet", 
                    "parent_committee_id": "SSCM", 
                    "rank_in_party": 6, 
                    "side": "minority", 
                    "title": "Member"
                }, 
                {
                    "api_uri": "https://api.propublica.org/congress/v1/115/senate/committees/SSCM/subcommittees/SSCM20.json", 
                    "begin_date": "", 
                    "code": "SSCM20", 
                    "end_date": "2019-01-03", 
                    "name": "Manufacturing, Trade, and Consumer Protection", 
                    "parent_committee_id": "SSCM", 
                    "rank_in_party": 4, 
                    "side": "minority", 
                    "title": "Member"
                }, 
                {
                    "api_uri": "https://api.propublica.org/congress/v1/115/senate/committees/SSCM/subcommittees/SSCM25.json", 
                    "begin_date": "", 
                    "code": "SSCM25", 
                    "end_date": "2019-01-03", 
                    "name": "Transportation and Safety", 
                    "parent_committee_id": "SSCM", 
                    "rank_in_party": 4, 
                    "side": "minority", 
                    "title": "Member"
                }
            ], 
            "title": "Senator, 2nd Class", 
            "votes_with_party_pct": 92.41
        }, 
        {
            "bills_cosponsored": 208, 
            "bills_sponsored": 53, 
            "chamber": "Senate", 
            "committees": [
                {
                    "api_uri": "https://api.propublica.org/congress/v1/114/senate/committees/JSPR.json", 
                    "begin_date": "", 
                    "code": "JSPR", 
                    "end_date": "2017-01-03", 
                    "name": "Joint Committee on Printing", 
                    "rank_in_party": null
                }, 
                {
                    "api_uri": "https://api.propublica.org/congress/v1/114/senate/committees/SLIA.json", 
                    "begin_date": "", 
                    "code": "SLIA", 
                    "end_date": "2017-01-03", 
                    "name": "Committee on Indian Affairs", 
                    "rank_in_party": null
                }, 
                {
                    "api_uri": "https://api.propublica.org/congress/v1/114/senate/committees/SSAP.json", 
                    "begin_date": "", 
                    "code": "SSAP", 
                    "end_date": "2017-01-03", 
                    "name": "Committee on Appropriations", 
                    "rank_in_party": null
                }, 
                {
                    "api_uri": "https://api.propublica.org/congress/v1/114/senate/committees/SSCM.json", 
                    "begin_date": "", 
                    "code": "SSCM", 
                    "end_date": "2017-01-03", 
                    "name": "Committee on Commerce, Science, and Transportation", 
                    "rank_in_party": null
                }, 
                {
                    "api_uri": "https://api.propublica.org/congress/v1/114/senate/committees/SSFR.json", 
                    "begin_date": "", 
                    "code": "SSFR", 
                    "end_date": "2017-01-03", 
                    "name": "Committee on Foreign Relations", 
                    "rank_in_party": null
                }, 
                {
                    "api_uri": "https://api.propublica.org/congress/v1/114/senate/committees/SSRA.json", 
                    "begin_date": "", 
                    "code": "SSRA", 
                    "end_date": "2017-01-03", 
                    "name": "Committee on Rules and Administration", 
                    "rank_in_party": null
                }, 
                {
                    "api_uri": "https://api.propublica.org/congress/v1/114/senate/committees/JCSE.json", 
                    "begin_date": "", 
                    "code": "JCSE", 
                    "end_date": "2017-01-03", 
                    "name": "Commission on Security and Cooperation in Europe", 
                    "rank_in_party": null
                }
            ], 
            "congress": "114", 
            "contact_form": null, 
            "end_date": "2017-01-03", 
            "fax": null, 
            "fec_candidate_id": "S8NM00184", 
            "leadership_role": null, 
            "lis_id": "S326", 
            "missed_votes_pct": 0.8, 
            "ocd_id": "ocd-division/country:us/state:nm", 
            "office": null, 
            "party": "D", 
            "phone": null, 
            "senate_class": "2", 
            "seniority": "8", 
            "short_title": "Sen.", 
            "start_date": "2015-01-06", 
            "state": "NM", 
            "state_rank": "", 
            "subcommittees": [], 
            "title": "Senator, 2nd Class", 
            "votes_with_party_pct": 94.58
        }, 
        {
            "bills_cosponsored": 220, 
            "bills_sponsored": 54, 
            "chamber": "Senate", 
            "committees": [
                {
                    "api_uri": "https://api.propublica.org/congress/v1/113/senate/committees/SSAP.json", 
                    "begin_date": "2013-01-03", 
                    "code": "SSAP", 
                    "end_date": "2015-01-03", 
                    "name": "Committee on Appropriations", 
                    "rank_in_party": 12
                }, 
                {
                    "api_uri": "https://api.propublica.org/congress/v1/113/senate/committees/SLIA.json", 
                    "begin_date": "2013-01-03", 
                    "code": "SLIA", 
                    "end_date": "2015-01-03", 
                    "name": "Committee on Indian Affairs", 
                    "rank_in_party": 4
                }, 
                {
                    "api_uri": "https://api.propublica.org/congress/v1/113/senate/committees/SSRA.json", 
                    "begin_date": "2013-01-03", 
                    "code": "SSRA", 
                    "end_date": "2015-01-03", 
                    "name": "Committee on Rules and Administration", 
                    "rank_in_party": 6
                }, 
                {
                    "api_uri": "https://api.propublica.org/congress/v1/113/senate/committees/SSFR.json", 
                    "begin_date": "2013-01-03", 
                    "code": "SSFR", 
                    "end_date": "2015-01-03", 
                    "name": "Committee on Foreign Relations", 
                    "rank_in_party": 7
                }, 
                {
                    "api_uri": "https://api.propublica.org/congress/v1/113/senate/committees/SSEV.json", 
                    "begin_date": "2013-01-03", 
                    "code": "SSEV", 
                    "end_date": "2015-01-03", 
                    "name": "Committee on Environment and Public Works", 
                    "rank_in_party": 7
                }
            ], 
            "congress": "113", 
            "contact_form": null, 
            "end_date": "2015-01-02", 
            "fax": null, 
            "fec_candidate_id": "", 
            "leadership_role": null, 
            "lis_id": "S326", 
            "missed_votes_pct": 0.3, 
            "ocd_id": "ocd-division/country:us/state:nm", 
            "office": null, 
            "party": "D", 
            "phone": null, 
            "senate_class": "2", 
            "seniority": "6", 
            "short_title": "Sen.", 
            "start_date": "2013-01-03", 
            "state": "NM", 
            "state_rank": "", 
            "subcommittees": [
                {
                    "api_uri": "https://api.propublica.org/congress/v1/113/senate/committees/SSEV/subcommittees/SSEV08.json", 
                    "begin_date": "2013-01-03", 
                    "code": "SSEV08", 
                    "end_date": "2015-01-03", 
                    "name": "Transportation and Infrastructure", 
                    "parent_committee_id": "SSEV", 
                    "rank_in_party": 7
                }, 
                {
                    "api_uri": "https://api.propublica.org/congress/v1/113/senate/committees/SSEV/subcommittees/SSEV15.json", 
                    "begin_date": "2013-01-03", 
                    "code": "SSEV15", 
                    "end_date": "2015-01-03", 
                    "name": "Fisheries, Water, and Wildlife", 
                    "parent_committee_id": "SSEV", 
                    "rank_in_party": 5
                }, 
                {
                    "api_uri": "https://api.propublica.org/congress/v1/113/senate/committees/SSFR/subcommittees/SSFR09.json", 
                    "begin_date": "2013-01-03", 
                    "code": "SSFR09", 
                    "end_date": "2015-01-03", 
                    "name": "Africa and Global Health Policy", 
                    "parent_committee_id": "SSFR", 
                    "rank_in_party": 3
                }, 
                {
                    "api_uri": "https://api.propublica.org/congress/v1/113/senate/committees/SSFR/subcommittees/SSFR12.json", 
                    "begin_date": "2013-01-03", 
                    "code": "SSFR12", 
                    "end_date": "2015-01-03", 
                    "name": "International Development and Foreign Assistance, Economic Affairs, International Environmental Protection, and Peace Corps", 
                    "parent_committee_id": "SSFR", 
                    "rank_in_party": 4
                }, 
                {
                    "api_uri": "https://api.propublica.org/congress/v1/113/senate/committees/SSFR/subcommittees/SSFR07.json", 
                    "begin_date": "2013-01-03", 
                    "code": "SSFR07", 
                    "end_date": "2015-01-03", 
                    "name": "Near East, South Asia, Central Asia, and Counterterrorism", 
                    "parent_committee_id": "SSFR", 
                    "rank_in_party": 6
                }, 
                {
                    "api_uri": "https://api.propublica.org/congress/v1/113/senate/committees/SSFR/subcommittees/SSFR06.json", 
                    "begin_date": "2013-01-03", 
                    "code": "SSFR06", 
                    "end_date": "2015-01-03", 
                    "name": "Western Hemisphere, Transnational Crime, Civilian Security, Democracy, Human Rights, and Global Women's Issues", 
                    "parent_committee_id": "SSFR", 
                    "rank_in_party": 4
                }, 
                {
                    "api_uri": "https://api.propublica.org/congress/v1/113/senate/committees/SSEV/subcommittees/SSEV17.json", 
                    "begin_date": "2013-01-03", 
                    "code": "SSEV17", 
                    "end_date": "2015-01-03", 
                    "name": "Subcommittee on Children's Health and Environmental Responsibility", 
                    "parent_committee_id": "SSEV", 
                    "rank_in_party": 1
                }
            ], 
            "title": "Senator, 2nd Class", 
            "votes_with_party_pct": 98.17
        }, 
        {
            "bills_cosponsored": 195, 
            "bills_sponsored": 25, 
            "chamber": "Senate", 
            "committees": [], 
            "congress": "112", 
            "contact_form": null, 
            "end_date": "2013-01-03", 
            "fax": null, 
            "fec_candidate_id": "", 
            "leadership_role": null, 
            "lis_id": "S326", 
            "missed_votes_pct": 2.67, 
            "ocd_id": "ocd-division/country:us/state:nm", 
            "office": null, 
            "party": "D", 
            "phone": null, 
            "senate_class": "2", 
            "seniority": "4", 
            "short_title": "Sen.", 
            "start_date": "2011-01-04", 
            "state": "NM", 
            "state_rank": "", 
            "subcommittees": [], 
            "title": "Senator, 2nd Class", 
            "votes_with_party_pct": 96.83
        }, 
        {
            "bills_cosponsored": 192, 
            "bills_sponsored": 27, 
            "chamber": "Senate", 
            "committees": [
                {
                    "api_uri": "https://api.propublica.org/congress/v1/111/senate/committees/JSPR.json", 
                    "begin_date": "2009-04-03", 
                    "code": "JSPR", 
                    "end_date": "2011-01-03", 
                    "name": "Joint Committee on Printing", 
                    "rank_in_party": 3
                }, 
                {
                    "api_uri": "https://api.propublica.org/congress/v1/111/senate/committees/SSRA.json", 
                    "begin_date": "2009-01-21", 
                    "code": "SSRA", 
                    "end_date": "2011-01-03", 
                    "name": "Committee on Rules and Administration", 
                    "rank_in_party": 9
                }, 
                {
                    "api_uri": "https://api.propublica.org/congress/v1/111/senate/committees/SLIA.json", 
                    "begin_date": "2009-01-21", 
                    "code": "SLIA", 
                    "end_date": "2011-01-03", 
                    "name": "Committee on Indian Affairs", 
                    "rank_in_party": 8
                }, 
                {
                    "api_uri": "https://api.propublica.org/congress/v1/111/senate/committees/SSCM.json", 
                    "begin_date": "2009-01-21", 
                    "code": "SSCM", 
                    "end_date": "2011-01-03", 
                    "name": "Committee on Commerce, Science, and Transportation", 
                    "rank_in_party": 12
                }, 
                {
                    "api_uri": "https://api.propublica.org/congress/v1/111/senate/committees/SSEV.json", 
                    "begin_date": "2009-01-21", 
                    "code": "SSEV", 
                    "end_date": "2011-01-03", 
                    "name": "Committee on Environment and Public Works", 
                    "rank_in_party": 9
                }
            ], 
            "congress": "111", 
            "contact_form": null, 
            "end_date": "2011-01-03", 
            "fax": null, 
            "fec_candidate_id": "", 
            "leadership_role": null, 
            "lis_id": "S326", 
            "missed_votes_pct": 0.89, 
            "ocd_id": "ocd-division/country:us/state:nm", 
            "office": null, 
            "party": "D", 
            "phone": null, 
            "senate_class": "2", 
            "seniority": "2", 
            "short_title": "Sen.", 
            "start_date": "2009-01-06", 
            "state": "NM", 
            "state_rank": "", 
            "subcommittees": [], 
            "title": "Senator, 2nd Class", 
            "votes_with_party_pct": 95.98
        }, 
        {
            "at_large": false, 
            "bills_cosponsored": 220, 
            "bills_sponsored": 27, 
            "chamber": "House", 
            "committees": [
                {
                    "api_uri": "https://api.propublica.org/congress/v1/110/house/committees/HSAP.json", 
                    "begin_date": "2007-01-04", 
                    "code": "HSAP", 
                    "end_date": "2009-01-03", 
                    "name": "Committee on Appropriations", 
                    "rank_in_party": 28
                }
            ], 
            "congress": "110", 
            "contact_form": null, 
            "district": "3", 
            "end_date": "2009-01-03", 
            "fax": null, 
            "fec_candidate_id": "", 
            "leadership_role": null, 
            "missed_votes_pct": 4.32, 
            "ocd_id": "ocd-division/country:us/state:nm/cd:3", 
            "office": null, 
            "party": "D", 
            "phone": null, 
            "seniority": "10", 
            "short_title": "Rep.", 
            "start_date": "2007-01-04", 
            "state": "NM", 
            "subcommittees": [], 
            "title": "Representative", 
            "votes_with_party_pct": 97.05
        }, 
        {
            "at_large": false, 
            "bills_cosponsored": 261, 
            "bills_sponsored": 25, 
            "chamber": "House", 
            "committees": [], 
            "congress": "109", 
            "contact_form": null, 
            "district": "3", 
            "end_date": "2007-01-03", 
            "fax": null, 
            "fec_candidate_id": "", 
            "leadership_role": null, 
            "missed_votes_pct": 2.88, 
            "ocd_id": "ocd-division/country:us/state:nm/cd:3", 
            "office": null, 
            "party": "D", 
            "phone": null, 
            "seniority": "8", 
            "short_title": "Rep.", 
            "start_date": "2005-01-04", 
            "state": "NM", 
            "subcommittees": [], 
            "title": "Representative", 
            "votes_with_party_pct": 92.54
        }, 
        {
            "at_large": false, 
            "bills_cosponsored": 341, 
            "bills_sponsored": 23, 
            "chamber": "House", 
            "committees": [], 
            "congress": "108", 
            "contact_form": null, 
            "district": "3", 
            "end_date": "2005-01-03", 
            "fax": null, 
            "fec_candidate_id": "", 
            "leadership_role": null, 
            "missed_votes_pct": 0.25, 
            "ocd_id": "ocd-division/country:us/state:nm/cd:3", 
            "office": null, 
            "party": "D", 
            "phone": null, 
            "seniority": "6", 
            "short_title": "Rep.", 
            "start_date": "2003-01-07", 
            "state": "NM", 
            "subcommittees": [], 
            "title": "Representative", 
            "votes_with_party_pct": 92.69
        }, 
        {
            "at_large": false, 
            "bills_cosponsored": 336, 
            "bills_sponsored": 23, 
            "chamber": "House", 
            "committees": [], 
            "congress": "107", 
            "contact_form": null, 
            "district": "3", 
            "end_date": "2003-01-03", 
            "fax": null, 
            "fec_candidate_id": "", 
            "leadership_role": null, 
            "missed_votes_pct": 0.3, 
            "ocd_id": "ocd-division/country:us/state:nm/cd:3", 
            "office": null, 
            "party": "D", 
            "phone": null, 
            "seniority": "4", 
            "short_title": "Rep.", 
            "start_date": "2001-01-03", 
            "state": "NM", 
            "subcommittees": [], 
            "title": "Representative", 
            "votes_with_party_pct": 87.61
        }, 
        {
            "at_large": false, 
            "bills_cosponsored": 259, 
            "bills_sponsored": 22, 
            "chamber": "House", 
            "committees": [], 
            "congress": "106", 
            "contact_form": null, 
            "district": "3", 
            "end_date": "2001-01-03", 
            "fax": null, 
            "fec_candidate_id": "", 
            "leadership_role": null, 
            "missed_votes_pct": 3.13, 
            "ocd_id": "ocd-division/country:us/state:nm/cd:3", 
            "office": null, 
            "party": "D", 
            "phone": null, 
            "seniority": "2", 
            "short_title": "Rep.", 
            "start_date": "1999-01-06", 
            "state": "NM", 
            "subcommittees": [], 
            "title": "Representative", 
            "votes_with_party_pct": 88.44
        }
    ], 
    "rss_url": null, 
    "suffix": null, 
    "times_tag": "Udall, Tom (Per)", 
    "times_topics_url": "http://topics.nytimes.com/top/reference/timestopics/people/u/tom_udall/index.html", 
    "twitter_account": "SenatorTomUdall", 
    "url": "https://www.tomudall.senate.gov", 
    "votesmart_id": "22658", 
    "youtube_account": "senatortomudall"
}