{
    "crp_id": "N00013820", 
    "cspan_id": "20756", 
    "current_party": "D", 
    "date_of_birth": "1959-01-10", 
    "facebook_account": "chrisvanhollen", 
    "first_name": "Chris", 
    "gender": "M", 
    "google_entity_id": "/m/025kb5", 
    "govtrack_id": "400415", 
    "icpsr_id": "20330", 
    "in_office": true, 
    "last_name": "Van Hollen", 
    "last_updated": "2019-07-01 08:25:21 -0400", 
    "member_id": "V000128", 
    "middle_name": null, 
    "most_recent_vote": "2019-06-28", 
    "roles": [
        {
            "bills_cosponsored": 301, 
            "bills_sponsored": 20, 
            "chamber": "Senate", 
            "committees": [
                {
                    "api_uri": "https://api.propublica.org/congress/v1/116/senate/committees/SSAP.json", 
                    "begin_date": "2019-01-09", 
                    "code": "SSAP", 
                    "end_date": "2021-01-03", 
                    "name": "Committee on Appropriations", 
                    "rank_in_party": 15, 
                    "side": "minority", 
                    "title": "Member"
                }, 
                {
                    "api_uri": "https://api.propublica.org/congress/v1/116/senate/committees/SSBK.json", 
                    "begin_date": "2019-01-09", 
                    "code": "SSBK", 
                    "end_date": "2021-01-03", 
                    "name": "Committee on Banking, Housing, and Urban Affairs", 
                    "rank_in_party": 8, 
                    "side": "minority", 
                    "title": "Member"
                }, 
                {
                    "api_uri": "https://api.propublica.org/congress/v1/116/senate/committees/SSEV.json", 
                    "begin_date": "2019-01-09", 
                    "code": "SSEV", 
                    "end_date": "2021-01-03", 
                    "name": "Committee on Environment and Public Works", 
                    "rank_in_party": 10, 
                    "side": "minority", 
                    "title": "Member"
                }, 
                {
                    "api_uri": "https://api.propublica.org/congress/v1/116/senate/committees/SSBU.json", 
                    "begin_date": "2019-01-09", 
                    "code": "SSBU", 
                    "end_date": "2021-01-03", 
                    "name": "Committee on the Budget", 
                    "rank_in_party": 9, 
                    "side": "minority", 
                    "title": "Member"
                }
            ], 
            "congress": "116", 
            "contact_form": "http://www.vanhollen.senate.gov/contact/email", 
            "end_date": "2021-01-03", 
            "fax": "202-225-0375", 
            "fec_candidate_id": "H2MD08126", 
            "leadership_role": null, 
            "lis_id": "S390", 
            "missed_votes_pct": 0.53, 
            "ocd_id": "ocd-division/country:us/state:md", 
            "office": "110 Hart Senate Office Building", 
            "party": "D", 
            "phone": "202-224-4654", 
            "senate_class": "3", 
            "seniority": "3", 
            "short_title": "Sen.", 
            "start_date": "2019-01-03", 
            "state": "MD", 
            "state_rank": "junior", 
            "subcommittees": [
                {
                    "api_uri": "https://api.propublica.org/congress/v1/116/senate/committees/SSBK/subcommittees/SSBK04.json", 
                    "begin_date": "2019-01-18", 
                    "code": "SSBK04", 
                    "end_date": "2021-01-03", 
                    "name": "Securities, Insurance, and Investment", 
                    "parent_committee_id": "SSBK", 
                    "rank_in_party": 1, 
                    "side": "minority", 
                    "title": "Ranking Member"
                }, 
                {
                    "api_uri": "https://api.propublica.org/congress/v1/116/senate/committees/SSBK/subcommittees/SSBK05.json", 
                    "begin_date": "2019-01-18", 
                    "code": "SSBK05", 
                    "end_date": "2021-01-03", 
                    "name": "National Security and International Trade and Finance", 
                    "parent_committee_id": "SSBK", 
                    "rank_in_party": 3, 
                    "side": "minority", 
                    "title": "Member"
                }, 
                {
                    "api_uri": "https://api.propublica.org/congress/v1/116/senate/committees/SSBK/subcommittees/SSBK08.json", 
                    "begin_date": "2019-01-18", 
                    "code": "SSBK08", 
                    "end_date": "2021-01-03", 
                    "name": "Financial Institutions and Consumer Protection", 
                    "parent_committee_id": "SSBK", 
                    "rank_in_party": 6, 
                    "side": "minority", 
                    "title": "Member"
                }, 
                {
                    "api_uri": "https://api.propublica.org/congress/v1/116/senate/committees/SSAP/subcommittees/SSAP08.json", 
                    "begin_date": "", 
                    "code": "SSAP08", 
                    "end_date": "2021-01-03", 
                    "name": "Legislative Branch", 
                    "parent_committee_id": "SSAP", 
                    "rank_in_party": 2, 
                    "side": "minority", 
                    "title": "Member"
                }, 
                {
                    "api_uri": "https://api.propublica.org/congress/v1/116/senate/committees/SSAP/subcommittees/SSAP16.json", 
                    "begin_date": "", 
                    "code": "SSAP16", 
                    "end_date": "2021-01-03", 
                    "name": "Commerce, Justice, Science, and Related Agencies Subcommittee", 
                    "parent_committee_id": "SSAP", 
                    "rank_in_party": 8, 
                    "side": "minority", 
                    "title": "Member"
                }, 
                {
                    "api_uri": "https://api.propublica.org/congress/v1/116/senate/committees/SSAP/subcommittees/SSAP17.json", 
                    "begin_date": "", 
                    "code": "SSAP17", 
                    "end_date": "2021-01-03", 
                    "name": "Department of the Interior, Environment, and Related Agencies", 
                    "parent_committee_id": "SSAP", 
                    "rank_in_party": 7, 
                    "side": "minority", 
                    "title": "Member"
                }, 
                {
                    "api_uri": "https://api.propublica.org/congress/v1/116/senate/committees/SSAP/subcommittees/SSAP20.json", 
                    "begin_date": "", 
                    "code": "SSAP20", 
                    "end_date": "2021-01-03", 
                    "name": "State, Foreign Operations, and Related Programs", 
                    "parent_committee_id": "SSAP", 
                    "rank_in_party": 7, 
                    "side": "minority", 
                    "title": "Member"
                }, 
                {
                    "api_uri": "https://api.propublica.org/congress/v1/116/senate/committees/SSEV/subcommittees/SSEV08.json", 
                    "begin_date": "", 
                    "code": "SSEV08", 
                    "end_date": "2021-01-03", 
                    "name": "Transportation and Infrastructure", 
                    "parent_committee_id": "SSEV", 
                    "rank_in_party": 8, 
                    "side": "minority", 
                    "title": "Member"
                }, 
                {
                    "api_uri": "https://api.propublica.org/congress/v1/116/senate/committees/SSAP/subcommittees/SSAP23.json", 
                    "begin_date": "", 
                    "code": "SSAP23", 
                    "end_date": "2021-01-03", 
                    "name": "Financial Services and General Government Subcommittee", 
                    "parent_committee_id": "SSAP", 
                    "rank_in_party": 4, 
                    "side": "minority", 
                    "title": "Member"
                }, 
                {
                    "api_uri": "https://api.propublica.org/congress/v1/116/senate/committees/SSEV/subcommittees/SSEV15.json", 
                    "begin_date": "", 
                    "code": "SSEV15", 
                    "end_date": "2021-01-03", 
                    "name": "Fisheries, Water, and Wildlife", 
                    "parent_committee_id": "SSEV", 
                    "rank_in_party": 6, 
                    "side": "minority", 
                    "title": "Member"
                }
            ], 
            "title": "Senator, 3rd Class", 
            "votes_with_party_pct": 88.83
        }, 
        {
            "bills_cosponsored": 469, 
            "bills_sponsored": 21, 
            "chamber": "Senate", 
            "committees": [
                {
                    "api_uri": "https://api.propublica.org/congress/v1/115/senate/committees/SSAF.json", 
                    "begin_date": "2017-01-03", 
                    "code": "SSAF", 
                    "end_date": "2019-01-03", 
                    "name": "Committee on Agriculture, Nutrition, and Forestry", 
                    "rank_in_party": 10, 
                    "side": "minority", 
                    "title": "Member"
                }, 
                {
                    "api_uri": "https://api.propublica.org/congress/v1/115/senate/committees/SSAP.json", 
                    "begin_date": "2017-01-03", 
                    "code": "SSAP", 
                    "end_date": "2019-01-03", 
                    "name": "Committee on Appropriations", 
                    "rank_in_party": 15, 
                    "side": "minority", 
                    "title": "Member"
                }, 
                {
                    "api_uri": "https://api.propublica.org/congress/v1/115/senate/committees/SSBK.json", 
                    "begin_date": "2017-01-03", 
                    "code": "SSBK", 
                    "end_date": "2019-01-03", 
                    "name": "Committee on Banking, Housing, and Urban Affairs", 
                    "rank_in_party": 10, 
                    "side": "minority", 
                    "title": "Member"
                }, 
                {
                    "api_uri": "https://api.propublica.org/congress/v1/115/senate/committees/SSBU.json", 
                    "begin_date": "2017-01-03", 
                    "code": "SSBU", 
                    "end_date": "2019-01-03", 
                    "name": "Committee on the Budget", 
                    "rank_in_party": 10, 
                    "side": "minority", 
                    "title": "Member"
                }, 
                {
                    "api_uri": "https://api.propublica.org/congress/v1/115/senate/committees/SSEV.json", 
                    "begin_date": "", 
                    "code": "SSEV", 
                    "end_date": "2019-01-03", 
                    "name": "Committee on Environment and Public Works", 
                    "rank_in_party": null, 
                    "side": "minority", 
                    "title": "Member"
                }
            ], 
            "congress": "115", 
            "contact_form": "https://www.vanhollen.senate.gov/contact/email", 
            "end_date": "2019-01-03", 
            "fax": "202-225-0375", 
            "fec_candidate_id": "S6MD03441", 
            "leadership_role": null, 
            "lis_id": "S390", 
            "missed_votes_pct": 0.67, 
            "ocd_id": "ocd-division/country:us/state:md", 
            "office": "110 Hart Senate Office Building", 
            "party": "D", 
            "phone": "202-224-4654", 
            "senate_class": "3", 
            "seniority": "1", 
            "short_title": "Sen.", 
            "start_date": "2017-01-03", 
            "state": "MD", 
            "state_rank": "junior", 
            "subcommittees": [
                {
                    "api_uri": "https://api.propublica.org/congress/v1/115/senate/committees/SSAF/subcommittees/SSAF16.json", 
                    "begin_date": "", 
                    "code": "SSAF16", 
                    "end_date": "2019-01-03", 
                    "name": "Nutrition, Agricultural Research, and Specialty Crops", 
                    "parent_committee_id": "SSAF", 
                    "rank_in_party": 5, 
                    "side": "minority", 
                    "title": "Member"
                }, 
                {
                    "api_uri": "https://api.propublica.org/congress/v1/115/senate/committees/SSAF/subcommittees/SSAF15.json", 
                    "begin_date": "", 
                    "code": "SSAF15", 
                    "end_date": "2019-01-03", 
                    "name": "Rural Development and Energy", 
                    "parent_committee_id": "SSAF", 
                    "rank_in_party": 1, 
                    "side": "minority", 
                    "title": "Ranking Member"
                }, 
                {
                    "api_uri": "https://api.propublica.org/congress/v1/115/senate/committees/SSBK/subcommittees/SSBK08.json", 
                    "begin_date": "", 
                    "code": "SSBK08", 
                    "end_date": "2019-01-03", 
                    "name": "Financial Institutions and Consumer Protection", 
                    "parent_committee_id": "SSBK", 
                    "rank_in_party": 7, 
                    "side": "minority", 
                    "title": "Member"
                }, 
                {
                    "api_uri": "https://api.propublica.org/congress/v1/115/senate/committees/SSBK/subcommittees/SSBK09.json", 
                    "begin_date": "", 
                    "code": "SSBK09", 
                    "end_date": "2019-01-03", 
                    "name": "Housing, Transportation, and Community Development", 
                    "parent_committee_id": "SSBK", 
                    "rank_in_party": 5, 
                    "side": "minority", 
                    "title": "Member"
                }, 
                {
                    "api_uri": "https://api.propublica.org/congress/v1/115/senate/committees/SSEV/subcommittees/SSEV15.json", 
                    "begin_date": "", 
                    "code": "SSEV15", 
                    "end_date": "2019-01-03", 
                    "name": "Fisheries, Water, and Wildlife", 
                    "parent_committee_id": "SSEV", 
                    "rank_in_party": 7, 
                    "side": "minority", 
                    "title": "Member"
                }, 
                {
                    "api_uri": "https://api.propublica.org/congress/v1/115/senate/committees/SSAP/subcommittees/SSAP16.json", 
                    "begin_date": "", 
                    "code": "SSAP16", 
                    "end_date": "2019-01-03", 
                    "name": "Commerce, Justice, Science, and Related Agencies Subcommittee", 
                    "parent_committee_id": "SSAP", 
                    "rank_in_party": 8, 
                    "side": "minority", 
                    "title": "Member"
                }, 
                {
                    "api_uri": "https://api.propublica.org/congress/v1/115/senate/committees/SSEV/subcommittees/SSEV09.json", 
                    "begin_date": "", 
                    "code": "SSEV09", 
                    "end_date": "2019-01-03", 
                    "name": "Superfund, Waste Management, and Regulatory Oversight", 
                    "parent_committee_id": "SSEV", 
                    "rank_in_party": 3, 
                    "side": "minority", 
                    "title": "Member"
                }, 
                {
                    "api_uri": "https://api.propublica.org/congress/v1/115/senate/committees/SSBK/subcommittees/SSBK04.json", 
                    "begin_date": "", 
                    "code": "SSBK04", 
                    "end_date": "2019-01-03", 
                    "name": "Securities, Insurance, and Investment", 
                    "parent_committee_id": "SSBK", 
                    "rank_in_party": 6, 
                    "side": "minority", 
                    "title": "Member"
                }, 
                {
                    "api_uri": "https://api.propublica.org/congress/v1/115/senate/committees/SSAP/subcommittees/SSAP17.json", 
                    "begin_date": "", 
                    "code": "SSAP17", 
                    "end_date": "2019-01-03", 
                    "name": "Department of the Interior, Environment, and Related Agencies", 
                    "parent_committee_id": "SSAP", 
                    "rank_in_party": 7, 
                    "side": "minority", 
                    "title": "Member"
                }, 
                {
                    "api_uri": "https://api.propublica.org/congress/v1/115/senate/committees/SSAP/subcommittees/SSAP23.json", 
                    "begin_date": "", 
                    "code": "SSAP23", 
                    "end_date": "2019-01-03", 
                    "name": "Financial Services and General Government Subcommittee", 
                    "parent_committee_id": "SSAP", 
                    "rank_in_party": 4, 
                    "side": "minority", 
                    "title": "Member"
                }, 
                {
                    "api_uri": "https://api.propublica.org/congress/v1/115/senate/committees/SSAP/subcommittees/SSAP08.json", 
                    "begin_date": "", 
                    "code": "SSAP08", 
                    "end_date": "2019-01-03", 
                    "name": "Legislative Branch", 
                    "parent_committee_id": "SSAP", 
                    "rank_in_party": 2, 
                    "side": "minority", 
                    "title": "Member"
                }, 
                {
                    "api_uri": "https://api.propublica.org/congress/v1/115/senate/committees/SSAP/subcommittees/SSAP20.json", 
                    "begin_date": "", 
                    "code": "SSAP20", 
                    "end_date": "2019-01-03", 
                    "name": "State, Foreign Operations, and Related Programs", 
                    "parent_committee_id": "SSAP", 
                    "rank_in_party": 7, 
                    "side": "minority", 
                    "title": "Member"
                }, 
                {
                    "api_uri": "https://api.propublica.org/congress/v1/115/senate/committees/SSAF/subcommittees/SSAF13.json", 
                    "begin_date": "", 
                    "code": "SSAF13", 
                    "end_date": "2019-01-03", 
                    "name": "Commodities, Risk Management, and Trade", 
                    "parent_committee_id": "SSAF", 
                    "rank_in_party": 6, 
                    "side": "minority", 
                    "title": "Member"
                }
            ], 
            "title": "Senator, 3rd Class", 
            "votes_with_party_pct": 94.62
        }, 
        {
            "at_large": false, 
            "bills_cosponsored": 424, 
            "bills_sponsored": 17, 
            "chamber": "House", 
            "committees": [
                {
                    "api_uri": "https://api.propublica.org/congress/v1/114/house/committees/HSBU.json", 
                    "begin_date": "", 
                    "code": "HSBU", 
                    "end_date": "2017-01-03", 
                    "name": "Committee on the Budget", 
                    "rank_in_party": 1
                }
            ], 
            "congress": "114", 
            "contact_form": null, 
            "district": "8", 
            "end_date": "2017-01-03", 
            "fax": null, 
            "fec_candidate_id": "H2MD08126", 
            "leadership_role": null, 
            "missed_votes_pct": 3.02, 
            "ocd_id": "ocd-division/country:us/state:md/cd:8", 
            "office": null, 
            "party": "D", 
            "phone": null, 
            "seniority": "14", 
            "short_title": "Rep.", 
            "start_date": "2015-01-06", 
            "state": "MD", 
            "subcommittees": [], 
            "title": "Representative", 
            "votes_with_party_pct": 97.5
        }, 
        {
            "at_large": false, 
            "bills_cosponsored": 325, 
            "bills_sponsored": 19, 
            "chamber": "House", 
            "committees": [
                {
                    "api_uri": "https://api.propublica.org/congress/v1/113/house/committees/HSBU.json", 
                    "begin_date": "2013-01-03", 
                    "code": "HSBU", 
                    "end_date": "2015-01-03", 
                    "name": "Committee on the Budget", 
                    "rank_in_party": 1
                }
            ], 
            "congress": "113", 
            "contact_form": null, 
            "district": "8", 
            "end_date": "2015-01-02", 
            "fax": null, 
            "fec_candidate_id": "", 
            "leadership_role": null, 
            "missed_votes_pct": 1.24, 
            "ocd_id": "ocd-division/country:us/state:md/cd:8", 
            "office": null, 
            "party": "D", 
            "phone": null, 
            "seniority": "12", 
            "short_title": "Rep.", 
            "start_date": "2013-01-03", 
            "state": "MD", 
            "subcommittees": [], 
            "title": "Representative", 
            "votes_with_party_pct": 95.07
        }, 
        {
            "at_large": false, 
            "bills_cosponsored": 266, 
            "bills_sponsored": 12, 
            "chamber": "House", 
            "committees": [
                {
                    "api_uri": "https://api.propublica.org/congress/v1/112/house/committees/HSBU.json", 
                    "begin_date": "2011-01-05", 
                    "code": "HSBU", 
                    "end_date": "2013-01-03", 
                    "name": "Committee on the Budget", 
                    "rank_in_party": 1
                }
            ], 
            "congress": "112", 
            "contact_form": null, 
            "district": "8", 
            "end_date": "2013-01-03", 
            "fax": null, 
            "fec_candidate_id": "", 
            "leadership_role": null, 
            "missed_votes_pct": 1.81, 
            "ocd_id": "ocd-division/country:us/state:md/cd:8", 
            "office": null, 
            "party": "D", 
            "phone": null, 
            "seniority": "10", 
            "short_title": "Rep.", 
            "start_date": "2011-01-04", 
            "state": "MD", 
            "subcommittees": [], 
            "title": "Representative", 
            "votes_with_party_pct": 95.17
        }, 
        {
            "at_large": false, 
            "bills_cosponsored": 413, 
            "bills_sponsored": 25, 
            "chamber": "House", 
            "committees": [
                {
                    "api_uri": "https://api.propublica.org/congress/v1/111/house/committees/HSGO.json", 
                    "begin_date": "2009-01-28", 
                    "code": "HSGO", 
                    "end_date": "2011-01-03", 
                    "name": "Committee on Oversight and Reform", 
                    "rank_in_party": 17
                }, 
                {
                    "api_uri": "https://api.propublica.org/congress/v1/111/house/committees/HSWM.json", 
                    "begin_date": "2009-01-07", 
                    "code": "HSWM", 
                    "end_date": "2011-01-03", 
                    "name": "Committee on Ways and Means", 
                    "rank_in_party": 18
                }
            ], 
            "congress": "111", 
            "contact_form": null, 
            "district": "8", 
            "end_date": "2011-01-03", 
            "fax": null, 
            "fec_candidate_id": "", 
            "leadership_role": null, 
            "missed_votes_pct": 1.88, 
            "ocd_id": "ocd-division/country:us/state:md/cd:8", 
            "office": null, 
            "party": "D", 
            "phone": null, 
            "seniority": "8", 
            "short_title": "Rep.", 
            "start_date": "2009-01-06", 
            "state": "MD", 
            "subcommittees": [], 
            "title": "Representative", 
            "votes_with_party_pct": 98.95
        }, 
        {
            "at_large": false, 
            "bills_cosponsored": 630, 
            "bills_sponsored": 26, 
            "chamber": "House", 
            "committees": [
                {
                    "api_uri": "https://api.propublica.org/congress/v1/110/house/committees/HSGO.json", 
                    "begin_date": "2007-01-12", 
                    "code": "HSGO", 
                    "end_date": "2009-01-03", 
                    "name": "Committee on Oversight and Reform", 
                    "rank_in_party": 19
                }, 
                {
                    "api_uri": "https://api.propublica.org/congress/v1/110/house/committees/HSWM.json", 
                    "begin_date": "2007-01-04", 
                    "code": "HSWM", 
                    "end_date": "2009-01-03", 
                    "name": "Committee on Ways and Means", 
                    "rank_in_party": 21
                }
            ], 
            "congress": "110", 
            "contact_form": null, 
            "district": "8", 
            "end_date": "2009-01-03", 
            "fax": null, 
            "fec_candidate_id": "", 
            "leadership_role": null, 
            "missed_votes_pct": 1.55, 
            "ocd_id": "ocd-division/country:us/state:md/cd:8", 
            "office": null, 
            "party": "D", 
            "phone": null, 
            "seniority": "6", 
            "short_title": "Rep.", 
            "start_date": "2007-01-04", 
            "state": "MD", 
            "subcommittees": [], 
            "title": "Representative", 
            "votes_with_party_pct": 97.72
        }, 
        {
            "at_large": false, 
            "bills_cosponsored": 622, 
            "bills_sponsored": 8, 
            "chamber": "House", 
            "committees": [], 
            "congress": "109", 
            "contact_form": null, 
            "district": "8", 
            "end_date": "2007-01-03", 
            "fax": null, 
            "fec_candidate_id": "", 
            "leadership_role": null, 
            "missed_votes_pct": 0.25, 
            "ocd_id": "ocd-division/country:us/state:md/cd:8", 
            "office": null, 
            "party": "D", 
            "phone": null, 
            "seniority": "4", 
            "short_title": "Rep.", 
            "start_date": "2005-01-04", 
            "state": "MD", 
            "subcommittees": [], 
            "title": "Representative", 
            "votes_with_party_pct": 95.62
        }, 
        {
            "at_large": false, 
            "bills_cosponsored": 515, 
            "bills_sponsored": 12, 
            "chamber": "House", 
            "committees": [], 
            "congress": "108", 
            "contact_form": null, 
            "district": "8", 
            "end_date": "2005-01-03", 
            "fax": null, 
            "fec_candidate_id": "", 
            "leadership_role": null, 
            "missed_votes_pct": 0.33, 
            "ocd_id": "ocd-division/country:us/state:md/cd:8", 
            "office": null, 
            "party": "D", 
            "phone": null, 
            "seniority": "2", 
            "short_title": "Rep.", 
            "start_date": "2003-01-07", 
            "state": "MD", 
            "subcommittees": [], 
            "title": "Representative", 
            "votes_with_party_pct": 94.99
        }
    ], 
    "rss_url": null, 
    "suffix": null, 
    "times_tag": "", 
    "times_topics_url": "", 
    "twitter_account": "ChrisVanHollen", 
    "url": "https://www.vanhollen.senate.gov", 
    "votesmart_id": "6098", 
    "youtube_account": "RepChrisVanHollen"
}