{
    "active": false, 
    "bill_id": "hr1201-116", 
    "bill_slug": "hr1201", 
    "bill_type": "hr", 
    "bill_uri": "https://api.propublica.org/congress/v1/116/bills/hr1201.json", 
    "committee_codes": [
        "HSIF"
    ], 
    "committees": "House Intelligence (Permanent Select) Committee", 
    "congressdotgov_url": "https://www.congress.gov/bill/116th-congress/house-bill/1201", 
    "cosponsors": 43, 
    "cosponsors_by_party": {
        "D": 43
    }, 
    "enacted": null, 
    "govtrack_url": "https://www.govtrack.us/congress/bills/116/hr1201", 
    "gpo_pdf_uri": "https://www.govinfo.gov/content/pkg/BILLS-116hr1201ih/pdf/BILLS-116hr1201ih.pdf", 
    "house_passage": null, 
    "introduced_date": "2019-02-13", 
    "last_vote": null, 
    "latest_major_action": "Referred to the Committee on Energy and Commerce, and in addition to the Committees on Armed Services, Foreign Affairs, Science, Space, and Technology, and Intelligence (Permanent Select), for a period to be subsequently determined by the Speaker, in each case for consideration of such provisions as fall within the jurisdiction of the committee concerned.", 
    "latest_major_action_date": "2019-02-13", 
    "number": "H.R.1201", 
    "primary_subject": "Environmental Protection", 
    "senate_passage": null, 
    "short_title": "Climate Change National Security Strategy Act of 2019", 
    "sponsor_id": "L000562", 
    "sponsor_name": "Stephen F. Lynch", 
    "sponsor_party": "D", 
    "sponsor_state": "MA", 
    "sponsor_title": "Rep.", 
    "sponsor_uri": "https://api.propublica.org/congress/v1/members/L000562.json", 
    "subcommittee_codes": [], 
    "summary": "", 
    "summary_short": "", 
    "title": "To direct Federal departments and agencies to perform certain functions to ensure that climate change-related impacts are fully considered in the development of national security doctrine, policies, and plans, and for other purposes.", 
    "vetoed": null
}