{
    "active": false, 
    "bill_id": "hr2858-115", 
    "bill_slug": "hr2858", 
    "bill_type": "hr", 
    "bill_uri": "https://api.propublica.org/congress/v1/115/bills/hr2858.json", 
    "committee_codes": [
        "HSIF"
    ], 
    "committees": "House Energy and Commerce Committee", 
    "congressdotgov_url": "https://www.congress.gov/bill/115th-congress/house-bill/2858", 
    "cosponsors": 13, 
    "cosponsors_by_party": {
        "D": 10, 
        "R": 3
    }, 
    "enacted": null, 
    "govtrack_url": "https://www.govtrack.us/congress/bills/115/hr2858", 
    "gpo_pdf_uri": "https://www.govinfo.gov/content/pkg/BILLS-115hr2858ih/pdf/BILLS-115hr2858ih.pdf", 
    "house_passage": null, 
    "introduced_date": "2017-06-08", 
    "last_vote": null, 
    "latest_major_action": "Referred to the Subcommittee on Environment.", 
    "latest_major_action_date": "2017-06-09", 
    "number": "H.R.2858", 
    "primary_subject": "Environmental Protection", 
    "senate_passage": null, 
    "short_title": "SUPER Act of 2017", 
    "sponsor_id": "P000608", 
    "sponsor_name": "Scott Peters", 
    "sponsor_party": "D", 
    "sponsor_state": "CA", 
    "sponsor_title": "Rep.", 
    "sponsor_uri": "https://api.propublica.org/congress/v1/members/P000608.json", 
    "subcommittee_codes": [
        "HSIF18"
    ], 
    "summary": "", 
    "summary_short": "", 
    "title": "To establish a task force to review policies and measures to promote, and to develop best practices for, reduction of short-lived climate pollutants, and for other purposes.", 
    "vetoed": null
}