{
    "active": false, 
    "bill_id": "hr3100-116", 
    "bill_slug": "hr3100", 
    "bill_type": "hr", 
    "bill_uri": "https://api.propublica.org/congress/v1/116/bills/hr3100.json", 
    "committee_codes": [
        "HSSY"
    ], 
    "committees": "House Science, Space, and Technology Committee", 
    "congressdotgov_url": "https://www.congress.gov/bill/116th-congress/house-bill/3100", 
    "cosponsors": 11, 
    "cosponsors_by_party": {
        "D": 5, 
        "R": 6
    }, 
    "enacted": null, 
    "govtrack_url": "https://www.govtrack.us/congress/bills/116/hr3100", 
    "gpo_pdf_uri": "https://www.govinfo.gov/content/pkg/BILLS-116hr3100ih/pdf/BILLS-116hr3100ih.pdf", 
    "house_passage": null, 
    "introduced_date": "2019-06-05", 
    "last_vote": null, 
    "latest_major_action": "Referred to the Subcommittee on Energy.", 
    "latest_major_action_date": "2019-06-05", 
    "number": "H.R.3100", 
    "primary_subject": "Environmental Protection", 
    "senate_passage": null, 
    "short_title": "Challenges & Prizes for Climate Act of 2019", 
    "sponsor_id": "L000563", 
    "sponsor_name": "Daniel Lipinski", 
    "sponsor_party": "D", 
    "sponsor_state": "IL", 
    "sponsor_title": "Rep.", 
    "sponsor_uri": "https://api.propublica.org/congress/v1/members/L000563.json", 
    "subcommittee_codes": [
        "HSSY20"
    ], 
    "summary": "", 
    "summary_short": "", 
    "title": "To direct the Secretary of Energy to provide for prize competitions relating to climate and energy, and for other purposes.", 
    "vetoed": null
}