{
    "active": null, 
    "bill_id": "hr3448-110", 
    "bill_slug": "hr3448", 
    "bill_type": "hr", 
    "bill_uri": "https://api.propublica.org/congress/v1/110/bills/hr3448.json", 
    "committee_codes": [], 
    "committees": "House Energy and Commerce", 
    "congressdotgov_url": "https://www.congress.gov/bill/110th-congress/house-bill/3448", 
    "cosponsors": 22, 
    "cosponsors_by_party": {
        "D": 22
    }, 
    "enacted": null, 
    "govtrack_url": "https://www.govtrack.us/congress/bills/110/hr3448", 
    "gpo_pdf_uri": null, 
    "house_passage": null, 
    "introduced_date": "2007-08-03", 
    "last_vote": null, 
    "latest_major_action": "Referred to the Subcommittee on Energy and Air Quality.", 
    "latest_major_action_date": "2007-08-03", 
    "number": "H.R.3448", 
    "primary_subject": "Environmental protection", 
    "senate_passage": null, 
    "short_title": "Global Climate and Ozone Layer Protection Act of 2007", 
    "sponsor_id": "W000215", 
    "sponsor_name": "Henry A. Waxman", 
    "sponsor_party": "D", 
    "sponsor_state": "CA", 
    "sponsor_title": "Rep.", 
    "sponsor_uri": "https://api.propublica.org/congress/v1/members/W000215.json", 
    "subcommittee_codes": [], 
    "summary": "Global Climate and Ozone Layer Protection Act of 2007 - Expresses the sense of Congress that the United States should negotiate with the other parties to the Montreal Protocol concerning mitigating global warming impacts and accelerating the phaseout of hydrochlorofluorocarbons (HCFCs) for developed and developing countries.Amends the Clean Air Act to allow the production and consumption of class II substances that are used as fire suppression agents for military, commercial aviation, industrial, space, or national security applications and that reduce overall risk to human health and the environment compared to alternatives.Bans the importation of any product manufactured after January 1, 2010, that contains any class II substance that has been phased out of production and consumption for any purpose other than for its transformation or destruction.Bans the production or importation of class I or class II substances unless the Administrator of the Environmental Protection Agency (EPA) certifies that the importer has offset such production or importation. Requires the Administrator to promulgate regulations establishing standards and requirements regarding the sale, distribution, use, and safe disposal of substitutes for class I and class II substances.Makes it unlawful for specified persons to sell or distribute any such substitute that is suitable for use in a motor vehicle air-conditioning system and that is in a container of less than 20 pounds of such substitute.Establishes the Refrigerant Environmental Management Council as a nonprofit entity to address the emissions of fluorocarbon refrigerants in an economical, efficient, and effective manner and to lead industry in recovery, reclamation, and destruction of such refrigerants. Gives the Council authority to collect a levy on the domestic production of virgin HCFC and Hydrofluorocarbon (HFC) refrigerants, the import of all HCFC and HFC refrigerants, and the import of such refrigerants contained in equipment. Authorizes the Council to use the funds generated by the levies to provide incentive payments to entities that document that chlorofluorocarbons (CFCs), HCFCs, and HFCs have been reclaimed or destroyed.Authorizes the EPA to carry out the mission and activities of the SunWise Program.", 
    "summary_short": "Global Climate and Ozone Layer Protection Act of 2007 - Expresses the sense of Congress that the United States should negotiate with the other parties to the Montreal Protocol concerning mitigating global warming impacts and accelerating the phaseout of hydrochlorofluorocarbons (HCFCs) for developed and developing countries.Amends the Clean Air Act to allow the production and consumption of class II substances that are used as fire suppression agents for military, commercial aviation, industr...", 
    "title": "To reduce emissions of ozone depleting substances in order to protect the climate and stratospheric ozone layer, and for other purposes.", 
    "vetoed": null
}