{
    "active": false, 
    "bill_id": "hr4490-115", 
    "bill_slug": "hr4490", 
    "bill_type": "hr", 
    "bill_uri": "https://api.propublica.org/congress/v1/115/bills/hr4490.json", 
    "committee_codes": [
        "HSII"
    ], 
    "committees": "House Natural Resources Committee", 
    "congressdotgov_url": "https://www.congress.gov/bill/115th-congress/house-bill/4490", 
    "cosponsors": 23, 
    "cosponsors_by_party": {
        "D": 23
    }, 
    "enacted": null, 
    "govtrack_url": "https://www.govtrack.us/congress/bills/115/hr4490", 
    "gpo_pdf_uri": "https://www.govinfo.gov/content/pkg/BILLS-115hr4490ih/pdf/BILLS-115hr4490ih.pdf", 
    "house_passage": null, 
    "introduced_date": "2017-11-30", 
    "last_vote": null, 
    "latest_major_action": "Referred to the House Committee on Natural Resources.", 
    "latest_major_action_date": "2017-11-30", 
    "number": "H.R.4490", 
    "primary_subject": "Environmental Protection", 
    "senate_passage": null, 
    "short_title": "SAFE Act", 
    "sponsor_id": "C001090", 
    "sponsor_name": "Matt Cartwright", 
    "sponsor_party": "D", 
    "sponsor_state": "PA", 
    "sponsor_title": "Rep.", 
    "sponsor_uri": "https://api.propublica.org/congress/v1/members/C001090.json", 
    "subcommittee_codes": [], 
    "summary": "Safeguarding America's Future and Environment Act or the SAFE Act  This bill requires the President to establish an interagency National Fish, Wildlife, and Plants Climate Adaptation Strategy Joint Implementation Working Group to adopt the 2013 National Fish, Wildlife, and Plants Climate Adaptation Strategy, which addresses the effects of extreme weather and climate change on fish, wildlife, and plants. After the Committee on Earth and Environmental Sciences releases a periodic scientific assessment required under the U.S. Global Change Research Program, the working group must use sound science to review and revise the strategy to incorporate new information and advances in the development of strategies to help fish, wildlife, and plants adapt. Each federal agency must integrate the strategy into agency plans, environmental reviews, and programs. The Department of the Interior must establish a National Climate Change and Wildlife Science Center to assess and develop scientific information, tools, strategies, and techniques to support the working group and other interested parties in addressing the effects of extreme weather and climate change.  Interior must establish an Advisory Committee on Climate Change and Natural Resource Sciences to advise the working group. ", 
    "summary_short": "Safeguarding America&#39;s Future and Environment Act or the SAFE Act  This bill requires the President to establish an interagency National Fish, Wildlife, and Plants Climate Adaptation Strategy Joint Implementation Working Group to adopt the 2013 National Fish, Wildlife, and Plants Climate Adaptation Strategy, which addresses the effects of extreme weather and climate change on fish, wildlife, and plants. After the Committee on Earth and Environmental Sciences releases a periodic scientific ass...", 
    "title": "To establish an integrated national approach to respond to ongoing and expected effects of extreme weather and climate change by protecting, managing, and conserving the fish, wildlife, and plants of the United States, and to maximize Government efficiency and reduce costs, in cooperation with State, local, and Tribal Governments and other entities, and for other purposes.", 
    "vetoed": null
}