{
    "active": true, 
    "bill_id": "hr5078-113", 
    "bill_slug": "hr5078", 
    "bill_type": "hr", 
    "bill_uri": "https://api.propublica.org/congress/v1/113/bills/hr5078.json", 
    "committee_codes": [
        "HSPW"
    ], 
    "committees": "House Transportation and Infrastructure Committee", 
    "congressdotgov_url": "https://www.congress.gov/bill/113th-congress/house-bill/5078", 
    "cosponsors": 120, 
    "cosponsors_by_party": {
        "D": 5, 
        "R": 115
    }, 
    "enacted": null, 
    "govtrack_url": "https://www.govtrack.us/congress/bills/113/hr5078", 
    "gpo_pdf_uri": null, 
    "house_passage": "2014-09-09", 
    "introduced_date": "2014-07-11", 
    "last_vote": "2014-09-09", 
    "latest_major_action": "Read the second time. Placed on Senate Legislative Calendar under General Orders. Calendar No. 559.", 
    "latest_major_action_date": "2014-09-11", 
    "number": "H.R.5078", 
    "primary_subject": "Environmental Protection", 
    "senate_passage": null, 
    "short_title": "Waters of the United States Regulatory Overreach Protection Act of 2014", 
    "sponsor_id": "S001186", 
    "sponsor_name": "Steve Southerland", 
    "sponsor_party": "R", 
    "sponsor_state": "FL", 
    "sponsor_title": "Rep.", 
    "sponsor_uri": "https://api.propublica.org/congress/v1/members/S001186.json", 
    "subcommittee_codes": [
        "HSPW02"
    ], 
    "summary": "(This measure has not been amended since it was introduced. The expanded summary of the House reported version is repeated here.)  Waters of the United States Regulatory Overreach Protection Act of 2014 - Prohibits the U.S. Army Corps of Engineers and the Environmental Protection Agency (EPA) from:   developing, finalizing, adopting, implementing, applying, administering, or enforcing the proposed rule entitled, \"Definition of 'Waters of the United States' Under the Clean Water Act,\" issued on April 21, 2014, or the proposed guidance entitled, \"Guidance on Identifying Waters Protected By the Clean Water Act,\" dated February 17, 2012; or using the proposed rule or proposed guidance, any successor document, or any substantially similar proposed rule or guidance as the basis for any rulemaking or decision regarding the scope or enforcement of the Federal Water Pollution Control Act (commonly known as the Clean Water Act).  Requires the Army Corps and the EPA to withdraw the interpretive rule entitled, \"Notice of Availability Regarding the Exemption from Permitting Under Section 404(f)(1)(A) of the Clean Water Act to Certain Agricultural Conservation Practices,\" issued on April 21, 2014. Requires the Army Corps and the EPA to: (1) consult with relevant state and local officials to develop recommendations for a regulatory proposal that would identify the scope of waters covered under the Clean Water Act and the scope of waters not covered; (2) provide for the public review and comment of a draft report that includes a recommendation only if consensus has been reached with regard to the recommendation among the Army Corps, the EPA, and state and local officials; (3) publish a final report; and (4) report to Congress on the recommendations. ", 
    "summary_short": "(This measure has not been amended since it was introduced. The expanded summary of the House reported version is repeated here.)  Waters of the United States Regulatory Overreach Protection Act of 2014 - Prohibits the U.S. Army Corps of Engineers and the Environmental Protection Agency (EPA) from:   developing, finalizing, adopting, implementing, applying, administering, or enforcing the proposed rule entitled, &quot;Definition of &#39;Waters of the United States&#39; Under the Clean Water Act,&quot; issued o...", 
    "title": "To preserve existing rights and responsibilities with respect to waters of the United States, and for other purposes.", 
    "vetoed": null
}