{
    "active": false, 
    "bill_id": "hr5150-113", 
    "bill_slug": "hr5150", 
    "bill_type": "hr", 
    "bill_uri": "https://api.propublica.org/congress/v1/113/bills/hr5150.json", 
    "committee_codes": [
        "HSII", 
        "HSPW", 
        "HSIF"
    ], 
    "committees": "House Natural Resources Committee", 
    "congressdotgov_url": "https://www.congress.gov/bill/113th-congress/house-bill/5150", 
    "cosponsors": 0, 
    "cosponsors_by_party": {}, 
    "enacted": null, 
    "govtrack_url": "https://www.govtrack.us/congress/bills/113/hr5150", 
    "gpo_pdf_uri": null, 
    "house_passage": null, 
    "introduced_date": "2014-07-17", 
    "last_vote": null, 
    "latest_major_action": "Referred to the Subcommittee on Water and Power.", 
    "latest_major_action_date": "2014-07-23", 
    "number": "H.R.5150", 
    "primary_subject": "Environmental Protection", 
    "senate_passage": null, 
    "short_title": "WaterSense Efficiency, Conservation, and Adaptation Act of 2014", 
    "sponsor_id": "M001166", 
    "sponsor_name": "Jerry McNerney", 
    "sponsor_party": "D", 
    "sponsor_state": "CA", 
    "sponsor_title": "Rep.", 
    "sponsor_uri": "https://api.propublica.org/congress/v1/members/M001166.json", 
    "subcommittee_codes": [
        "HSII13", 
        "HSPW02", 
        "HSIF18"
    ], 
    "summary": "WaterSense Efficiency, Conservation, and Adaptation Act of 2014 - Establishes within the Environmental Protection Agency (EPA) a WaterSense program to identify and promote water efficient products, buildings, landscapes, facilities, processes, and services so as to:   reduce water use;   reduce the strain on water, wastewater, and stormwater infrastructure;  conserve energy used to pump, heat, transport, and treat water; and  preserve water resources through the voluntary labeling of, or other forms of communications about, products, buildings, landscapes, facilities, processes, and services that meet the highest water efficiency and performance criteria.  Requires the Administrator of EPA to identify other voluntary approaches to encourage recycling and reuse technologies to improve water efficiency or lower water use and to implement those approaches, if appropriate.Establishes a State Residential Water Efficiency and Conservation Incentives Program to provide financial incentives for consumers to purchase and install products, buildings, landscapes, facilities, processes, and services labeled under the WaterSense program.  Requires the Administrator to make grants to owners or operators of water systems to address, mitigate, and adapt to address any ongoing or forecasted impact of climate change on the water quality or quantity of a U.S. region.", 
    "summary_short": "WaterSense Efficiency, Conservation, and Adaptation Act of 2014 - Establishes within the Environmental Protection Agency (EPA) a WaterSense program to identify and promote water efficient products, buildings, landscapes, facilities, processes, and services so as to:   reduce water use;   reduce the strain on water, wastewater, and stormwater infrastructure;  conserve energy used to pump, heat, transport, and treat water; and  preserve water resources through the voluntary labeling of, or othe...", 
    "title": "To establish a WaterSense program within the Environmental Protection Agency.", 
    "vetoed": null
}