{
    "active": false, 
    "bill_id": "hr594-114", 
    "bill_slug": "hr594", 
    "bill_type": "hr", 
    "bill_uri": "https://api.propublica.org/congress/v1/114/bills/hr594.json", 
    "committee_codes": [
        "HSPW"
    ], 
    "committees": "House Transportation and Infrastructure Committee", 
    "congressdotgov_url": "https://www.congress.gov/bill/114th-congress/house-bill/594", 
    "cosponsors": 186, 
    "cosponsors_by_party": {
        "D": 3, 
        "R": 183
    }, 
    "enacted": null, 
    "govtrack_url": "https://www.govtrack.us/congress/bills/114/hr594", 
    "gpo_pdf_uri": null, 
    "house_passage": null, 
    "introduced_date": "2015-01-28", 
    "last_vote": null, 
    "latest_major_action": "Referred to the Subcommittee on Water Resources and Environment.", 
    "latest_major_action_date": "2015-01-29", 
    "number": "H.R.594", 
    "primary_subject": "Environmental Protection", 
    "senate_passage": null, 
    "short_title": "Waters of the United States Regulatory Overreach Protection Act of 2015", 
    "sponsor_id": "G000565", 
    "sponsor_name": "Paul Gosar", 
    "sponsor_party": "R", 
    "sponsor_state": "AZ", 
    "sponsor_title": "Rep.", 
    "sponsor_uri": "https://api.propublica.org/congress/v1/members/G000565.json", 
    "subcommittee_codes": [
        "HSPW02"
    ], 
    "summary": "Waters of the United States Regulatory Overreach Protection Act of 2015  This bill prohibits the U.S. Army Corps of Engineers and the Environmental Protection Agency (EPA) from:   developing, finalizing, adopting, implementing, applying, administering, or enforcing the proposed rule entitled, \"Definition of 'Waters of the United States' Under the Clean Water Act,\" issued on April 21, 2014, or the proposed guidance entitled, \"Guidance on Identifying Waters Protected By the Clean Water Act,\" dated February 17, 2012; or using the proposed rule or proposed guidance, any successor document, or any substantially similar proposed rule or guidance as the basis for any rulemaking or decision regarding the scope or enforcement of the Federal Water Pollution Control Act (commonly known as the Clean Water Act).  The Army Corps and the EPA must withdraw the interpretive rule entitled, \"Notice of Availability Regarding the Exemption from Permitting Under Section 404(f)(1)(A) of the Clean Water Act to Certain Agricultural Conservation Practices,\" issued on April 21, 2014. The Army Corps and the EPA are required to consult with relevant state and local officials to develop recommendations for a regulatory proposal that would identify the scope of waters covered under the Clean Water Act and the scope of waters not covered.", 
    "summary_short": "Waters of the United States Regulatory Overreach Protection Act of 2015  This bill prohibits the U.S. Army Corps of Engineers and the Environmental Protection Agency (EPA) from:   developing, finalizing, adopting, implementing, applying, administering, or enforcing the proposed rule entitled, &quot;Definition of &#39;Waters of the United States&#39; Under the Clean Water Act,&quot; issued on April 21, 2014, or the proposed guidance entitled, &quot;Guidance on Identifying Waters Protected By the Clean Water Act,&quot; da...", 
    "title": "To preserve existing rights and responsibilities with respect to waters of the United States, and for other purposes.", 
    "vetoed": null
}