{
    "active": false, 
    "bill_id": "hr6121-114", 
    "bill_slug": "hr6121", 
    "bill_type": "hr", 
    "bill_uri": "https://api.propublica.org/congress/v1/114/bills/hr6121.json", 
    "committee_codes": [
        "HSIF"
    ], 
    "committees": "House Energy and Commerce Committee", 
    "congressdotgov_url": "https://www.congress.gov/bill/114th-congress/house-bill/6121", 
    "cosponsors": 2, 
    "cosponsors_by_party": {
        "D": 2
    }, 
    "enacted": null, 
    "govtrack_url": "https://www.govtrack.us/congress/bills/114/hr6121", 
    "gpo_pdf_uri": null, 
    "house_passage": null, 
    "introduced_date": "2016-09-22", 
    "last_vote": null, 
    "latest_major_action": "Referred to the House Committee on Energy and Commerce.", 
    "latest_major_action_date": "2016-09-22", 
    "number": "H.R.6121", 
    "primary_subject": "Environmental Protection", 
    "senate_passage": null, 
    "short_title": "Climate Resiliency, Security, and Source Water Protection Act", 
    "sponsor_id": "C001036", 
    "sponsor_name": "Lois Capps", 
    "sponsor_party": "D", 
    "sponsor_state": "CA", 
    "sponsor_title": "Rep.", 
    "sponsor_uri": "https://api.propublica.org/congress/v1/members/C001036.json", 
    "subcommittee_codes": [], 
    "summary": "Climate Resiliency, Security, and Source Water Protection Act This bill amends the Safe Drinking Water Act by requiring each community water system to submit to the Environmental Protection Agency (EPA) source water and distribution system vulnerability assessments that identify threats from:   industrial activity, pipelines and storage tanks, contaminated sites, agricultural activity, and oil and gas exploration; climate change, extreme weather, drought, and temperature changes; and   intentional acts, including intentional contamination, sabotage, and theft of any chemical of interest.   Each community water system must also submit to the EPA protection plans that mitigate the threats to source water and distribution systems. The EPA must establish a grant program for increasing the resiliency or adaptability of the community water systems to threats.  ", 
    "summary_short": "Climate Resiliency, Security, and Source Water Protection Act This bill amends the Safe Drinking Water Act by requiring each community water system to submit to the Environmental Protection Agency (EPA) source water and distribution system vulnerability assessments that identify threats from:   industrial activity, pipelines and storage tanks, contaminated sites, agricultural activity, and oil and gas exploration; climate change, extreme weather, drought, and temperature changes; and   intent...", 
    "title": "To amend the Safe Drinking Water Act with respect to climate resiliency, security, and source water protection planning, and for other purposes.", 
    "vetoed": null
}