{
    "active": null, 
    "bill_id": "hres354-111", 
    "bill_slug": "hres354", 
    "bill_type": "hres", 
    "bill_uri": "https://api.propublica.org/congress/v1/111/bills/hres354.json", 
    "committee_codes": [], 
    "committees": "House Energy and Commerce", 
    "congressdotgov_url": "https://www.congress.gov/bill/111th-congress/house-resolution/354", 
    "cosponsors": 0, 
    "cosponsors_by_party": {}, 
    "enacted": null, 
    "govtrack_url": "https://www.govtrack.us/congress/bills/111/hres354", 
    "gpo_pdf_uri": null, 
    "house_passage": null, 
    "introduced_date": "2009-04-22", 
    "last_vote": null, 
    "latest_major_action": "Referred to the Subcommittee on Energy and Environment.", 
    "latest_major_action_date": "2009-04-23", 
    "number": "H.RES.354", 
    "primary_subject": "Environmental protection", 
    "senate_passage": null, 
    "short_title": null, 
    "sponsor_id": "L000480", 
    "sponsor_name": "Nita M. Lowey", 
    "sponsor_party": "D", 
    "sponsor_state": "NY", 
    "sponsor_title": "Rep.", 
    "sponsor_uri": "https://api.propublica.org/congress/v1/members/L000480.json", 
    "subcommittee_codes": [], 
    "summary": "Recognizes that: (1) the Earth's climate system is warming; (2) most of the increase in global average temperatures is very likely due to the observed increase in human greenhouse gas emissions; and (3) legislation is needed to mitigate risks humans and ecosystems face from a warming climate system.", 
    "summary_short": "Recognizes that: (1) the Earth&#39;s climate system is warming; (2) most of the increase in global average temperatures is very likely due to the observed increase in human greenhouse gas emissions; and (3) legislation is needed to mitigate risks humans and ecosystems face from a warming climate system.", 
    "title": "Recognizing that the climate system of the Earth is warming and that most of the increase in global average temperatures is very likely due to the observed increase in human greenhouse gas emissions.", 
    "vetoed": null
}