{
    "active": null, 
    "bill_id": "hres835-112", 
    "bill_slug": "hres835", 
    "bill_type": "hres", 
    "bill_uri": "https://api.propublica.org/congress/v1/112/bills/hres835.json", 
    "committee_codes": [], 
    "committees": "House Energy and Commerce; House Foreign Affairs", 
    "congressdotgov_url": "https://www.congress.gov/bill/112th-congress/house-resolution/835", 
    "cosponsors": 0, 
    "cosponsors_by_party": {}, 
    "enacted": null, 
    "govtrack_url": "https://www.govtrack.us/congress/bills/112/hres835", 
    "gpo_pdf_uri": null, 
    "house_passage": null, 
    "introduced_date": "2012-12-18", 
    "last_vote": null, 
    "latest_major_action": "Referred to House Foreign Affairs", 
    "latest_major_action_date": "2012-12-18", 
    "number": "H.RES.835", 
    "primary_subject": "Environmental protection", 
    "senate_passage": null, 
    "short_title": null, 
    "sponsor_id": "K000336", 
    "sponsor_name": "Dennis J. Kucinich", 
    "sponsor_party": "D", 
    "sponsor_state": "OH", 
    "sponsor_title": "Rep.", 
    "sponsor_uri": "https://api.propublica.org/congress/v1/members/K000336.json", 
    "subcommittee_codes": [], 
    "summary": "Expresses the sense of the House of Representatives that the United States should: (1) adopt a target of 350 parts per million of atmospheric carbon dioxide by which to evaluate domestic and international climate change policies, and (2) develop domestic and international policies that are sufficiently flexible to accommodate advancing science in the event that a change in that target becomes warranted.", 
    "summary_short": "Expresses the sense of the House of Representatives that the United States should: (1) adopt a target of 350 parts per million of atmospheric carbon dioxide by which to evaluate domestic and international climate change policies, and (2) develop domestic and international policies that are sufficiently flexible to accommodate advancing science in the event that a change in that target becomes warranted.", 
    "title": "Expressing the sense of the House of Representatives that the United States should adopt a target of 350 parts per million of atmospheric carbon dioxide by which to evaluate domestic and international climate change policies, and for other purposes.", 
    "vetoed": null
}