{
    "active": false, 
    "bill_id": "hres427-116", 
    "bill_slug": "hres427", 
    "bill_type": "hres", 
    "bill_uri": "https://api.propublica.org/congress/v1/116/bills/hres427.json", 
    "committee_codes": [
        "HSII"
    ], 
    "committees": "House Science, Space, and Technology Committee", 
    "congressdotgov_url": "https://www.congress.gov/bill/116th-congress/house-resolution/427", 
    "cosponsors": 20, 
    "cosponsors_by_party": {
        "D": 15, 
        "R": 5
    }, 
    "enacted": null, 
    "govtrack_url": "https://www.govtrack.us/congress/bills/116/hres427", 
    "gpo_pdf_uri": "https://www.govinfo.gov/content/pkg/BILLS-116hres427ih/pdf/BILLS-116hres427ih.pdf", 
    "house_passage": null, 
    "introduced_date": "2019-06-05", 
    "last_vote": null, 
    "latest_major_action": "Referred to the Committee on Natural Resources, and in addition to the Committee on Science, Space, and Technology, for a period to be subsequently determined by the Speaker, in each case for consideration of such provisions as fall within the jurisdiction of the committee concerned.", 
    "latest_major_action_date": "2019-06-05", 
    "number": "H.RES.427", 
    "primary_subject": "Environmental Protection", 
    "senate_passage": null, 
    "short_title": "Recognizing World Oceans Day and the necessity to protect, conserve, maintain, and rebuild our oceans and its resources.", 
    "sponsor_id": "B001278", 
    "sponsor_name": "Suzanne Bonamici", 
    "sponsor_party": "D", 
    "sponsor_state": "OR", 
    "sponsor_title": "Rep.", 
    "sponsor_uri": "https://api.propublica.org/congress/v1/members/B001278.json", 
    "subcommittee_codes": [], 
    "summary": "This resolution (1) recognizes World Oceans Day and affirms the individual and collective duty, both nationally and internationally, to protect, conserve, maintain, and rebuild our oceans and its resources; and (2)expresses commitment to increasing the investment of federal funds into scientific research and monitoring to better understand the changing oceans.", 
    "summary_short": "This resolution (1) recognizes World Oceans Day and affirms the individual and collective duty, both nationally and internationally, to protect, conserve, maintain, and rebuild our oceans and its resources; and (2)expresses commitment to increasing the investment of federal funds into scientific research and monitoring to better understand the changing oceans.", 
    "title": "Recognizing World Oceans Day and the necessity to protect, conserve, maintain, and rebuild our oceans and its resources.", 
    "vetoed": null
}