{
    "active": false, 
    "bill_id": "s1930-115", 
    "bill_slug": "s1930", 
    "bill_type": "s", 
    "bill_uri": "https://api.propublica.org/congress/v1/115/bills/s1930.json", 
    "committee_codes": [
        "SSEV"
    ], 
    "committees": "Senate Environment and Public Works Committee", 
    "congressdotgov_url": "https://www.congress.gov/bill/115th-congress/senate-bill/1930", 
    "cosponsors": 13, 
    "cosponsors_by_party": {
        "D": 13
    }, 
    "enacted": null, 
    "govtrack_url": "https://www.govtrack.us/congress/bills/115/s1930", 
    "gpo_pdf_uri": "https://www.govinfo.gov/content/pkg/BILLS-115s1930is/pdf/BILLS-115s1930is.pdf", 
    "house_passage": null, 
    "introduced_date": "2017-10-05", 
    "last_vote": null, 
    "latest_major_action": "Read twice and referred to the Committee on Environment and Public Works.", 
    "latest_major_action_date": "2017-10-05", 
    "number": "S.1930", 
    "primary_subject": "Environmental Protection", 
    "senate_passage": null, 
    "short_title": "Pollution Transparency Act", 
    "sponsor_id": "B001267", 
    "sponsor_name": "Michael Bennet", 
    "sponsor_party": "D", 
    "sponsor_state": "CO", 
    "sponsor_title": "Sen.", 
    "sponsor_uri": "https://api.propublica.org/congress/v1/members/B001267.json", 
    "subcommittee_codes": [], 
    "summary": "Pollution Transparency Act The heads of federal agencies in making certain rulemaking or procurement decisions must consider the costs of carbon dioxide, methane, and nitrous oxide emissions as specified in the bill.  The bill establishes the Interagency Working Group on the Costs of Greenhouse Gases. The working group must evaluate the calculation method of the cost of greenhouse gases every five years. The bill also establishes the Costs of Greenhouse Gases Scientific Review Committee. The 10 members of the committee must be selected by the National Academies of Sciences, Engineering, and Medicine and represent relevant scientific fields. The committee must make recommendations to the working group regarding revisions to the greenhouse gas calculation method.", 
    "summary_short": "Pollution Transparency Act The heads of federal agencies in making certain rulemaking or procurement decisions must consider the costs of carbon dioxide, methane, and nitrous oxide emissions as specified in the bill.  The bill establishes the Interagency Working Group on the Costs of Greenhouse Gases. The working group must evaluate the calculation method of the cost of greenhouse gases every five years. The bill also establishes the Costs of Greenhouse Gases Scientific Review Committee. The ...", 
    "title": "A bill to establish a cost of greenhouse gases for carbon dioxide, methane, and nitrous oxide to be used by Federal agencies, and for other purposes.", 
    "vetoed": null
}