{
    "active": false, 
    "bill_id": "s3312-115", 
    "bill_slug": "s3312", 
    "bill_type": "s", 
    "bill_uri": "https://api.propublica.org/congress/v1/115/bills/s3312.json", 
    "committee_codes": [
        "SSEV"
    ], 
    "committees": "Senate Environment and Public Works Committee", 
    "congressdotgov_url": "https://www.congress.gov/bill/115th-congress/senate-bill/3312", 
    "cosponsors": 2, 
    "cosponsors_by_party": {
        "D": 2
    }, 
    "enacted": null, 
    "govtrack_url": "https://www.govtrack.us/congress/bills/115/s3312", 
    "gpo_pdf_uri": "https://www.govinfo.gov/content/pkg/BILLS-115s3312is/pdf/BILLS-115s3312is.pdf", 
    "house_passage": null, 
    "introduced_date": "2018-07-31", 
    "last_vote": null, 
    "latest_major_action": "Read twice and referred to the Committee on Environment and Public Works.", 
    "latest_major_action_date": "2018-07-31", 
    "number": "S.3312", 
    "primary_subject": "Environmental Protection", 
    "senate_passage": null, 
    "short_title": "EPA Act of 2018", 
    "sponsor_id": "M001176", 
    "sponsor_name": "Jeff Merkley", 
    "sponsor_party": "D", 
    "sponsor_state": "OR", 
    "sponsor_title": "Sen.", 
    "sponsor_uri": "https://api.propublica.org/congress/v1/members/M001176.json", 
    "subcommittee_codes": [], 
    "summary": "", 
    "summary_short": "", 
    "title": "A bill to suspend proposed rulemaking signed by former Administrator of the Environmental Protection Agency Scott Pruitt, and for other purposes.", 
    "vetoed": null
}