{
    "active": true, 
    "bill_id": "s383-116", 
    "bill_slug": "s383", 
    "bill_type": "s", 
    "bill_uri": "https://api.propublica.org/congress/v1/116/bills/s383.json", 
    "committee_codes": [
        "SSEV"
    ], 
    "committees": "Senate Environment and Public Works Committee", 
    "congressdotgov_url": "https://www.congress.gov/bill/116th-congress/senate-bill/383", 
    "cosponsors": 16, 
    "cosponsors_by_party": {
        "D": 9, 
        "R": 7
    }, 
    "enacted": null, 
    "govtrack_url": "https://www.govtrack.us/congress/bills/116/s383", 
    "gpo_pdf_uri": "https://www.govinfo.gov/content/pkg/BILLS-116s383rs/pdf/BILLS-116s383rs.pdf", 
    "house_passage": null, 
    "introduced_date": "2019-02-07", 
    "last_vote": null, 
    "latest_major_action": "By Senator Barrasso from Committee on Environment and Public Works filed written report. Report No. 116-38.", 
    "latest_major_action_date": "2019-05-13", 
    "number": "S.383", 
    "primary_subject": "Environmental Protection", 
    "senate_passage": null, 
    "short_title": "USE IT Act", 
    "sponsor_id": "B001261", 
    "sponsor_name": "John Barrasso", 
    "sponsor_party": "R", 
    "sponsor_state": "WY", 
    "sponsor_title": "Sen.", 
    "sponsor_uri": "https://api.propublica.org/congress/v1/members/B001261.json", 
    "subcommittee_codes": [], 
    "summary": "", 
    "summary_short": "", 
    "title": "A bill to support carbon dioxide utilization and direct air capture research, to facilitate the permitting and development of carbon capture, utilization, and sequestration projects and carbon dioxide pipelines, and for other purposes.", 
    "vetoed": null
}