{
    "active": true, 
    "bill_id": "s729-116", 
    "bill_slug": "s729", 
    "bill_type": "s", 
    "bill_uri": "https://api.propublica.org/congress/v1/116/bills/s729.json", 
    "committee_codes": [], 
    "committees": "", 
    "congressdotgov_url": "https://www.congress.gov/bill/116th-congress/senate-bill/729", 
    "cosponsors": 16, 
    "cosponsors_by_party": {
        "D": 16
    }, 
    "enacted": null, 
    "govtrack_url": "https://www.govtrack.us/congress/bills/116/s729", 
    "gpo_pdf_uri": "https://www.govinfo.gov/content/pkg/BILLS-116s729pcs/pdf/BILLS-116s729pcs.pdf", 
    "house_passage": null, 
    "introduced_date": "2019-03-07", 
    "last_vote": null, 
    "latest_major_action": "Read the second time. Placed on Senate Legislative Calendar under General Orders. Calendar No. 35.", 
    "latest_major_action_date": "2019-03-11", 
    "number": "S.729", 
    "primary_subject": "Environmental Protection", 
    "senate_passage": null, 
    "short_title": "A bill to prohibit the use of funds to Federal agencies to establish a panel, task force, advisory committee, or other effort to challenge the scientific consensus on climate change, and for other purposes.", 
    "sponsor_id": "S000148", 
    "sponsor_name": "Charles E. Schumer", 
    "sponsor_party": "D", 
    "sponsor_state": "NY", 
    "sponsor_title": "Sen.", 
    "sponsor_uri": "https://api.propublica.org/congress/v1/members/S000148.json", 
    "subcommittee_codes": [], 
    "summary": "", 
    "summary_short": "", 
    "title": "A bill to prohibit the use of funds to Federal agencies to establish a panel, task force, advisory committee, or other effort to challenge the scientific consensus on climate change, and for other purposes.", 
    "vetoed": null
}