{
    "active": false, 
    "bill_id": "s763-116", 
    "bill_slug": "s763", 
    "bill_type": "s", 
    "bill_uri": "https://api.propublica.org/congress/v1/116/bills/s763.json", 
    "committee_codes": [
        "SSFI"
    ], 
    "committees": "Senate Finance Committee", 
    "congressdotgov_url": "https://www.congress.gov/bill/116th-congress/senate-bill/763", 
    "cosponsors": 0, 
    "cosponsors_by_party": {}, 
    "enacted": null, 
    "govtrack_url": "https://www.govtrack.us/congress/bills/116/s763", 
    "gpo_pdf_uri": "https://www.govinfo.gov/content/pkg/BILLS-116s763is/pdf/BILLS-116s763is.pdf", 
    "house_passage": null, 
    "introduced_date": "2019-03-12", 
    "last_vote": null, 
    "latest_major_action": "Read twice and referred to the Committee on Finance. (text: CR S1795-1797)", 
    "latest_major_action_date": "2019-03-12", 
    "number": "S.763", 
    "primary_subject": "Environmental Protection", 
    "senate_passage": null, 
    "short_title": "Climate Change Resiliency Fund for America Act of 2019", 
    "sponsor_id": "D000563", 
    "sponsor_name": "Richard J. Durbin", 
    "sponsor_party": "D", 
    "sponsor_state": "IL", 
    "sponsor_title": "Sen.", 
    "sponsor_uri": "https://api.propublica.org/congress/v1/members/D000563.json", 
    "subcommittee_codes": [], 
    "summary": "", 
    "summary_short": "", 
    "title": "A bill to establish the Climate Change Advisory Commission to develop recommendations, frameworks, and guidelines for projects to respond to the impacts of climate change, to issue Federal obligations, the proceeds of which shall be used to fund projects that aid in adaptation to climate change, and for other purposes.", 
    "vetoed": null
}