{
    "active": false, 
    "bill_id": "s868-116", 
    "bill_slug": "s868", 
    "bill_type": "s", 
    "bill_uri": "https://api.propublica.org/congress/v1/116/bills/s868.json", 
    "committee_codes": [
        "SSFR"
    ], 
    "committees": "Senate Foreign Relations Committee", 
    "congressdotgov_url": "https://www.congress.gov/bill/116th-congress/senate-bill/868", 
    "cosponsors": 5, 
    "cosponsors_by_party": {
        "D": 5
    }, 
    "enacted": null, 
    "govtrack_url": "https://www.govtrack.us/congress/bills/116/s868", 
    "gpo_pdf_uri": "https://www.govinfo.gov/content/pkg/BILLS-116s868is/pdf/BILLS-116s868is.pdf", 
    "house_passage": null, 
    "introduced_date": "2019-03-26", 
    "last_vote": null, 
    "latest_major_action": "Read twice and referred to the Committee on Foreign Relations. (Sponsor introductory remarks on measure: CR S1989-1991)", 
    "latest_major_action_date": "2019-03-26", 
    "number": "S.868", 
    "primary_subject": "Environmental Protection", 
    "senate_passage": null, 
    "short_title": "Women and Climate Change Act of 2019", 
    "sponsor_id": "H001042", 
    "sponsor_name": "Mazie K. Hirono", 
    "sponsor_party": "D", 
    "sponsor_state": "HI", 
    "sponsor_title": "Sen.", 
    "sponsor_uri": "https://api.propublica.org/congress/v1/members/H001042.json", 
    "subcommittee_codes": [], 
    "summary": "Women and Climate Change Act of 2019 This bill addresses climate change and its effects on women and girls. Specifically, the bill establishes the Federal Interagency Working Group on Women and Climate Change within the Department of State. The bill outlines the functions of the working group, including the coordination of agencies' policies and activities relating to (1) combating the effects of climate change on women, and (2) improving the government's response to and strategy for climate change. In addition, the Office of Global Women's Issues of the State Department must submit a strategy to prevent and respond to the effects of climate change on women.", 
    "summary_short": "Women and Climate Change Act of 2019 This bill addresses climate change and its effects on women and girls. Specifically, the bill establishes the Federal Interagency Working Group on Women and Climate Change within the Department of State. The bill outlines the functions of the working group, including the coordination of agencies&#39; policies and activities relating to (1) combating the effects of climate change on women, and (2) improving the government&#39;s response to and strategy for climate ...", 
    "title": "A bill to address the disparate impact of climate change on women and support the efforts of women globally to address climate change, and for other purposes.", 
    "vetoed": null
}